^C:\USERS\USER\DOCUMENTS\COMPUTER SCIENCE\4TH YEAR\F21GA\FINAL\GAGRAPHICSTEMPLATE2020-MASTER\VS2019_3D_GRAPHICS_AND_ANIMATION_TEMPLATE\01_PIPELINE_INTERACTION\X64\DEBUG\MESH.OBJ|C:\USERS\USER\DOCUMENTS\COMPUTER SCIENCE\4TH YEAR\F21GA\FINAL\GAGRAPHICSTEMPLATE2020-MASTER\VS2019_3D_GRAPHICS_AND_ANIMATION_TEMPLATE\01_PIPELINE_INTERACTION\X64\DEBUG\OBJLOADER.OBJ|C:\USERS\USER\DOCUMENTS\COMPUTER SCIENCE\4TH YEAR\F21GA\FINAL\GAGRAPHICSTEMPLATE2020-MASTER\VS2019_3D_GRAPHICS_AND_ANIMATION_TEMPLATE\01_PIPELINE_INTERACTION\X64\DEBUG\SOURCE.OBJ
C:\PROGRAM FILES (X86)\WINDOWS KITS\10\LIB\10.0.18362.0\UM\X64\OPENGL32.LIB
C:\USERS\USER\DOCUMENTS\COMPUTER SCIENCE\4TH YEAR\F21GA\FINAL\GAGRAPHICSTEMPLATE2020-MASTER\LIBRARIES\GLEW-2.1.0\LIB\RELEASE\X64\GLEW32.LIB
C:\USERS\USER\DOCUMENTS\COMPUTER SCIENCE\4TH YEAR\F21GA\FINAL\GAGRAPHICSTEMPLATE2020-MASTER\LIBRARIES\GLEW-2.1.0\LIB\RELEASE\X64\GLEW32S.LIB
C:\USERS\USER\DOCUMENTS\COMPUTER SCIENCE\4TH YEAR\F21GA\FINAL\GAGRAPHICSTEMPLATE2020-MASTER\LIBRARIES\GLFW-3.3.BIN.WIN64\LIB-VC2019\GLFW3.LIB
C:\USERS\USER\DOCUMENTS\COMPUTER SCIENCE\4TH YEAR\F21GA\FINAL\GAGRAPHICSTEMPLATE2020-MASTER\LIBRARIES\GLFW-3.3.BIN.WIN64\LIB-VC2019\GLFW3DLL.LIB
C:\PROGRAM FILES (X86)\WINDOWS KITS\10\LIB\10.0.18362.0\UM\X64\KERNEL32.LIB
C:\PROGRAM FILES (X86)\WINDOWS KITS\10\LIB\10.0.18362.0\UM\X64\USER32.LIB
C:\PROGRAM FILES (X86)\WINDOWS KITS\10\LIB\10.0.18362.0\UM\X64\GDI32.LIB
C:\PROGRAM FILES (X86)\WINDOWS KITS\10\LIB\10.0.18362.0\UM\X64\WINSPOOL.LIB
C:\PROGRAM FILES (X86)\WINDOWS KITS\10\LIB\10.0.18362.0\UM\X64\COMDLG32.LIB
C:\PROGRAM FILES (X86)\WINDOWS KITS\10\LIB\10.0.18362.0\UM\X64\ADVAPI32.LIB
C:\PROGRAM FILES (X86)\WINDOWS KITS\10\LIB\10.0.18362.0\UM\X64\SHELL32.LIB
C:\PROGRAM FILES (X86)\WINDOWS KITS\10\LIB\10.0.18362.0\UM\X64\OLE32.LIB
C:\PROGRAM FILES (X86)\WINDOWS KITS\10\LIB\10.0.18362.0\UM\X64\OLEAUT32.LIB
C:\PROGRAM FILES (X86)\WINDOWS KITS\10\LIB\10.0.18362.0\UM\X64\UUID.LIB
C:\PROGRAM FILES (X86)\WINDOWS KITS\10\LIB\10.0.18362.0\UM\X64\ODBC32.LIB
C:\PROGRAM FILES (X86)\WINDOWS KITS\10\LIB\10.0.18362.0\UM\X64\ODBCCP32.LIB
C:\USERS\USER\DOCUMENTS\COMPUTER SCIENCE\4TH YEAR\F21GA\FINAL\GAGRAPHICSTEMPLATE2020-MASTER\VS2019_3D_GRAPHICS_AND_ANIMATION_TEMPLATE\01_PIPELINE_INTERACTION\X64\DEBUG\MESH.OBJ
C:\USERS\USER\DOCUMENTS\COMPUTER SCIENCE\4TH YEAR\F21GA\FINAL\GAGRAPHICSTEMPLATE2020-MASTER\VS2019_3D_GRAPHICS_AND_ANIMATION_TEMPLATE\01_PIPELINE_INTERACTION\X64\DEBUG\OBJLOADER.OBJ
C:\USERS\USER\DOCUMENTS\COMPUTER SCIENCE\4TH YEAR\F21GA\FINAL\GAGRAPHICSTEMPLATE2020-MASTER\VS2019_3D_GRAPHICS_AND_ANIMATION_TEMPLATE\01_PIPELINE_INTERACTION\X64\DEBUG\SOURCE.OBJ
C:\WINDOWS\SYSTEM32\TZRES.DLL
C:\WINDOWS\GLOBALIZATION\SORTING\SORTDEFAULT.NLS
C:\PROGRAM FILES (X86)\MICROSOFT VISUAL STUDIO\2019\COMMUNITY\VC\TOOLS\MSVC\14.27.29110\LIB\X64\MSVCPRTD.LIB
C:\PROGRAM FILES (X86)\MICROSOFT VISUAL STUDIO\2019\COMMUNITY\VC\TOOLS\MSVC\14.27.29110\LIB\X64\MSVCRTD.LIB
C:\PROGRAM FILES (X86)\MICROSOFT VISUAL STUDIO\2019\COMMUNITY\VC\TOOLS\MSVC\14.27.29110\LIB\X64\OLDNAMES.LIB
C:\PROGRAM FILES (X86)\MICROSOFT VISUAL STUDIO\2019\COMMUNITY\VC\TOOLS\MSVC\14.27.29110\LIB\X64\VCRUNTIMED.LIB
C:\PROGRAM FILES (X86)\WINDOWS KITS\10\LIB\10.0.18362.0\UCRT\X64\UCRTD.LIB
C:\PROGRAM FILES (X86)\MICROSOFT VISUAL STUDIO\2019\COMMUNITY\VC\TOOLS\MSVC\14.27.29110\BIN\HOSTX86\X64\MSPDBSRV.EXE
