# This file uses centimeters as units for non-parametric coordinates.

mtllib Carriage wheel pin back right.mtl
g default
v 17.453461 3.729885 -3.502437
v 17.406452 3.822145 -3.502437
v 17.333234 3.895363 -3.502437
v 17.240973 3.942372 -3.502437
v 17.138702 3.958571 -3.502437
v 17.036431 3.942372 -3.502437
v 16.944171 3.895363 -3.502437
v 16.870953 3.822145 -3.502437
v 16.823944 3.729885 -3.502437
v 16.807745 3.627614 -3.502437
v 16.823944 3.525342 -3.502437
v 16.870953 3.433082 -3.502437
v 16.944171 3.359864 -3.502437
v 17.036431 3.312855 -3.502437
v 17.138702 3.296657 -3.502437
v 17.240973 3.312855 -3.502437
v 17.333234 3.359864 -3.502437
v 17.406452 3.433082 -3.502437
v 17.453461 3.525342 -3.502437
v 17.469659 3.627614 -3.502437
v 17.453461 3.729885 -4.931128
v 17.406452 3.822145 -4.931128
v 17.333234 3.895363 -4.931128
v 17.240973 3.942372 -4.931128
v 17.138702 3.958571 -4.931128
v 17.036431 3.942372 -4.931128
v 16.944171 3.895363 -4.931128
v 16.870953 3.822145 -4.931128
v 16.823944 3.729885 -4.931128
v 16.807745 3.627614 -4.931128
v 16.823944 3.525342 -4.931128
v 16.870953 3.433082 -4.931128
v 16.944171 3.359864 -4.931128
v 17.036431 3.312855 -4.931128
v 17.138702 3.296657 -4.931128
v 17.240973 3.312855 -4.931128
v 17.333234 3.359864 -4.931128
v 17.406452 3.433082 -4.931128
v 17.453461 3.525342 -4.931128
v 17.469659 3.627614 -4.931128
v 17.138702 3.627614 -3.502437
v 17.138702 3.627614 -4.931128
vt 0.648603 0.107966
vt 0.626409 0.064408
vt 0.591842 0.029841
vt 0.548284 0.007647
vt 0.500000 -0.000000
vt 0.451716 0.007647
vt 0.408159 0.029841
vt 0.373591 0.064409
vt 0.351397 0.107966
vt 0.343750 0.156250
vt 0.351397 0.204534
vt 0.373591 0.248091
vt 0.408159 0.282659
vt 0.451716 0.304853
vt 0.500000 0.312500
vt 0.548284 0.304853
vt 0.591841 0.282659
vt 0.626409 0.248091
vt 0.648603 0.204534
vt 0.656250 0.156250
vt 0.375000 0.312500
vt 0.387500 0.312500
vt 0.400000 0.312500
vt 0.412500 0.312500
vt 0.425000 0.312500
vt 0.437500 0.312500
vt 0.450000 0.312500
vt 0.462500 0.312500
vt 0.475000 0.312500
vt 0.487500 0.312500
vt 0.500000 0.312500
vt 0.512500 0.312500
vt 0.525000 0.312500
vt 0.537500 0.312500
vt 0.550000 0.312500
vt 0.562500 0.312500
vt 0.575000 0.312500
vt 0.587500 0.312500
vt 0.600000 0.312500
vt 0.612500 0.312500
vt 0.625000 0.312500
vt 0.375000 0.688440
vt 0.387500 0.688440
vt 0.400000 0.688440
vt 0.412500 0.688440
vt 0.425000 0.688440
vt 0.437500 0.688440
vt 0.450000 0.688440
vt 0.462500 0.688440
vt 0.475000 0.688440
vt 0.487500 0.688440
vt 0.500000 0.688440
vt 0.512500 0.688440
vt 0.525000 0.688440
vt 0.537500 0.688440
vt 0.550000 0.688440
vt 0.562500 0.688440
vt 0.575000 0.688440
vt 0.587500 0.688440
vt 0.600000 0.688440
vt 0.612500 0.688440
vt 0.625000 0.688440
vt 0.648603 0.795466
vt 0.626409 0.751908
vt 0.591842 0.717341
vt 0.548284 0.695147
vt 0.500000 0.687500
vt 0.451716 0.695147
vt 0.408159 0.717341
vt 0.373591 0.751909
vt 0.351397 0.795466
vt 0.343750 0.843750
vt 0.351397 0.892034
vt 0.373591 0.935591
vt 0.408159 0.970159
vt 0.451716 0.992353
vt 0.500000 1.000000
vt 0.548284 0.992353
vt 0.591841 0.970159
vt 0.626409 0.935591
vt 0.648603 0.892034
vt 0.656250 0.843750
vt 0.500000 0.150000
vt 0.500000 0.837500
vn 0.951057 0.309016 -0.000000
vn 0.809017 0.587785 -0.000000
vn 0.809017 0.587785 -0.000000
vn 0.951057 0.309016 -0.000000
vn 0.587785 0.809017 -0.000000
vn 0.587785 0.809017 -0.000000
vn 0.309017 0.951057 -0.000000
vn 0.309017 0.951057 -0.000000
vn -0.000000 1.000000 0.000000
vn -0.000000 1.000000 0.000000
vn -0.309017 0.951056 0.000000
vn -0.309017 0.951056 0.000000
vn -0.587785 0.809017 0.000000
vn -0.587785 0.809017 0.000000
vn -0.809017 0.587785 0.000000
vn -0.809017 0.587785 0.000000
vn -0.951056 0.309017 0.000000
vn -0.951056 0.309017 0.000000
vn -1.000000 0.000000 0.000000
vn -1.000000 0.000000 0.000000
vn -0.951056 -0.309017 0.000000
vn -0.951056 -0.309017 0.000000
vn -0.809017 -0.587785 0.000000
vn -0.809017 -0.587785 0.000000
vn -0.587785 -0.809017 0.000000
vn -0.587785 -0.809017 0.000000
vn -0.309017 -0.951056 0.000000
vn -0.309017 -0.951056 0.000000
vn 0.000000 -1.000000 0.000000
vn 0.000000 -1.000000 0.000000
vn 0.309017 -0.951056 0.000000
vn 0.309017 -0.951056 0.000000
vn 0.587785 -0.809017 0.000000
vn 0.587785 -0.809017 0.000000
vn 0.809017 -0.587785 0.000000
vn 0.809017 -0.587785 0.000000
vn 0.951056 -0.309017 0.000000
vn 0.951056 -0.309017 0.000000
vn 1.000000 -0.000001 0.000000
vn 1.000000 -0.000001 0.000000
vn 0.000000 0.000000 1.000000
vn 0.000000 0.000000 1.000000
vn 0.000000 0.000000 1.000000
vn 0.000000 0.000000 1.000000
vn 0.000000 0.000000 1.000000
vn 0.000000 0.000000 1.000000
vn 0.000000 0.000000 1.000000
vn 0.000000 0.000000 1.000000
vn 0.000000 0.000000 1.000000
vn 0.000000 0.000000 1.000000
vn 0.000000 0.000000 1.000000
vn 0.000000 0.000000 1.000000
vn 0.000000 0.000000 1.000000
vn 0.000000 0.000000 1.000000
vn 0.000000 0.000000 1.000000
vn 0.000000 0.000000 1.000000
vn 0.000000 0.000000 1.000000
vn 0.000000 0.000000 1.000000
vn 0.000000 0.000000 1.000000
vn 0.000000 0.000000 1.000000
vn 0.000000 0.000000 1.000000
vn -0.000000 -0.000000 -1.000000
vn -0.000000 -0.000000 -1.000000
vn -0.000000 -0.000000 -1.000000
vn -0.000000 -0.000000 -1.000000
vn -0.000000 -0.000000 -1.000000
vn -0.000000 -0.000000 -1.000000
vn -0.000000 -0.000000 -1.000000
vn -0.000000 -0.000000 -1.000000
vn -0.000000 -0.000000 -1.000000
vn -0.000000 -0.000000 -1.000000
vn -0.000000 -0.000000 -1.000000
vn -0.000000 -0.000000 -1.000000
vn -0.000000 -0.000000 -1.000000
vn -0.000000 -0.000000 -1.000000
vn -0.000000 -0.000000 -1.000000
vn -0.000000 -0.000000 -1.000000
vn -0.000000 -0.000000 -1.000000
vn -0.000000 -0.000000 -1.000000
vn -0.000000 -0.000000 -1.000000
vn -0.000000 -0.000000 -1.000000
vn -0.000000 -0.000000 -1.000000
s 1
g pCylinder74
usemtl phong11SG
f 1/21/1 2/22/2 22/43/3 21/42/4
f 2/22/2 3/23/5 23/44/6 22/43/3
f 3/23/5 4/24/7 24/45/8 23/44/6
f 4/24/7 5/25/9 25/46/10 24/45/8
f 5/25/9 6/26/11 26/47/12 25/46/10
f 6/26/11 7/27/13 27/48/14 26/47/12
f 7/27/13 8/28/15 28/49/16 27/48/14
f 8/28/15 9/29/17 29/50/18 28/49/16
f 9/29/17 10/30/19 30/51/20 29/50/18
f 10/30/19 11/31/21 31/52/22 30/51/20
f 11/31/21 12/32/23 32/53/24 31/52/22
f 12/32/23 13/33/25 33/54/26 32/53/24
f 13/33/25 14/34/27 34/55/28 33/54/26
f 14/34/27 15/35/29 35/56/30 34/55/28
f 15/35/29 16/36/31 36/57/32 35/56/30
f 16/36/31 17/37/33 37/58/34 36/57/32
f 17/37/33 18/38/35 38/59/36 37/58/34
f 18/38/35 19/39/37 39/60/38 38/59/36
f 19/39/37 20/40/39 40/61/40 39/60/38
f 20/40/39 1/41/1 21/62/4 40/61/40
s 2
f 2/2/41 1/1/42 41/83/43
f 3/3/44 2/2/41 41/83/43
f 4/4/45 3/3/44 41/83/43
f 5/5/46 4/4/45 41/83/43
f 6/6/47 5/5/46 41/83/43
f 7/7/48 6/6/47 41/83/43
f 8/8/49 7/7/48 41/83/43
f 9/9/50 8/8/49 41/83/43
f 10/10/51 9/9/50 41/83/43
f 11/11/52 10/10/51 41/83/43
f 12/12/53 11/11/52 41/83/43
f 13/13/54 12/12/53 41/83/43
f 14/14/55 13/13/54 41/83/43
f 15/15/56 14/14/55 41/83/43
f 16/16/57 15/15/56 41/83/43
f 17/17/58 16/16/57 41/83/43
f 18/18/59 17/17/58 41/83/43
f 19/19/60 18/18/59 41/83/43
f 20/20/61 19/19/60 41/83/43
f 1/1/42 20/20/61 41/83/43
s 3
f 21/81/62 22/80/63 42/84/64
f 22/80/63 23/79/65 42/84/64
f 23/79/65 24/78/66 42/84/64
f 24/78/66 25/77/67 42/84/64
f 25/77/67 26/76/68 42/84/64
f 26/76/68 27/75/69 42/84/64
f 27/75/69 28/74/70 42/84/64
f 28/74/70 29/73/71 42/84/64
f 29/73/71 30/72/72 42/84/64
f 30/72/72 31/71/73 42/84/64
f 31/71/73 32/70/74 42/84/64
f 32/70/74 33/69/75 42/84/64
f 33/69/75 34/68/76 42/84/64
f 34/68/76 35/67/77 42/84/64
f 35/67/77 36/66/78 42/84/64
f 36/66/78 37/65/79 42/84/64
f 37/65/79 38/64/80 42/84/64
f 38/64/80 39/63/81 42/84/64
f 39/63/81 40/82/82 42/84/64
f 40/82/82 21/81/62 42/84/64
g default
v 17.632497 3.788057 -4.863586
v 17.558749 3.932795 -4.863586
v 17.443884 4.047660 -4.863586
v 17.299146 4.121408 -4.863586
v 17.138702 4.146820 -4.863586
v 16.978259 4.121408 -4.863586
v 16.833520 4.047660 -4.863586
v 16.718656 3.932795 -4.863586
v 16.644908 3.788057 -4.863586
v 16.619496 3.627613 -4.863586
v 16.644908 3.467170 -4.863586
v 16.718656 3.322432 -4.863586
v 16.833521 3.207567 -4.863586
v 16.978259 3.133819 -4.863586
v 17.138702 3.108408 -4.863586
v 17.299146 3.133819 -4.863586
v 17.443884 3.207567 -4.863586
v 17.558749 3.322432 -4.863586
v 17.632496 3.467170 -4.863586
v 17.657908 3.627613 -4.863586
v 17.138702 3.627613 -4.863570
v 17.138702 3.627613 -5.177895
v 17.629908 3.787216 -4.904625
v 17.622185 3.784706 -4.944947
v 17.609460 3.780572 -4.983876
v 17.591951 3.774883 -5.020748
v 17.569958 3.767737 -5.054931
v 17.543856 3.759256 -5.085840
v 17.514094 3.749586 -5.112947
v 17.481178 3.738891 -5.135787
v 17.445674 3.727355 -5.153970
v 17.408188 3.715175 -5.167185
v 17.369362 3.702560 -5.175206
v 17.329860 3.689725 -5.177895
v 17.556546 3.931195 -4.904625
v 17.549977 3.926422 -4.944947
v 17.539153 3.918558 -4.983876
v 17.524259 3.907737 -5.020748
v 17.505550 3.894144 -5.054931
v 17.483347 3.878013 -5.085840
v 17.458029 3.859618 -5.112947
v 17.430030 3.839275 -5.135787
v 17.399828 3.817333 -5.153970
v 17.367941 3.794165 -5.167185
v 17.334913 3.770169 -5.175206
v 17.301311 3.745756 -5.177895
v 17.442284 4.045458 -4.904625
v 17.437511 4.038888 -4.944947
v 17.429646 4.028064 -4.983876
v 17.418825 4.013170 -5.020748
v 17.405233 3.994461 -5.054931
v 17.389101 3.972258 -5.085840
v 17.370707 3.946941 -5.112947
v 17.350364 3.918941 -5.135787
v 17.328421 3.888739 -5.153970
v 17.305254 3.856852 -5.167185
v 17.281258 3.823825 -5.175206
v 17.256844 3.790222 -5.177895
v 17.298304 4.118819 -4.904625
v 17.295795 4.111096 -4.944947
v 17.291661 4.098371 -4.983876
v 17.285972 4.080862 -5.020748
v 17.278826 4.058869 -5.054931
v 17.270345 4.032768 -5.085840
v 17.260674 4.003005 -5.112947
v 17.249980 3.970090 -5.135787
v 17.238443 3.934585 -5.153970
v 17.226264 3.897100 -5.167185
v 17.213648 3.858274 -5.175206
v 17.200813 3.818772 -5.177895
v 17.138702 4.144097 -4.904625
v 17.138702 4.135977 -4.944947
v 17.138702 4.122597 -4.983876
v 17.138702 4.104188 -5.020748
v 17.138702 4.081062 -5.054931
v 17.138702 4.053618 -5.085840
v 17.138702 4.022323 -5.112947
v 17.138702 3.987714 -5.135787
v 17.138702 3.950383 -5.153970
v 17.138702 3.910968 -5.167185
v 17.138702 3.870144 -5.175206
v 17.138702 3.828609 -5.177895
v 16.979100 4.118819 -4.904625
v 16.981609 4.111096 -4.944947
v 16.985744 4.098371 -4.983876
v 16.991433 4.080862 -5.020748
v 16.998579 4.058869 -5.054931
v 17.007060 4.032768 -5.085840
v 17.016730 4.003005 -5.112947
v 17.027425 3.970090 -5.135787
v 17.038961 3.934585 -5.153970
v 17.051141 3.897099 -5.167185
v 17.063756 3.858273 -5.175206
v 17.076591 3.818772 -5.177895
v 16.835121 4.045458 -4.904625
v 16.839894 4.038888 -4.944947
v 16.847758 4.028064 -4.983876
v 16.858579 4.013170 -5.020748
v 16.872172 3.994461 -5.054931
v 16.888303 3.972258 -5.085840
v 16.906698 3.946941 -5.112947
v 16.927040 3.918941 -5.135787
v 16.948983 3.888739 -5.153970
v 16.972151 3.856852 -5.167185
v 16.996147 3.823825 -5.175206
v 17.020560 3.790222 -5.177895
v 16.720858 3.931195 -4.904625
v 16.727428 3.926422 -4.944947
v 16.738252 3.918558 -4.983876
v 16.753146 3.907737 -5.020748
v 16.771854 3.894144 -5.054931
v 16.794057 3.878013 -5.085840
v 16.819375 3.859618 -5.112947
v 16.847375 3.839275 -5.135787
v 16.877576 3.817333 -5.153970
v 16.909464 3.794165 -5.167185
v 16.942491 3.770169 -5.175206
v 16.976094 3.745756 -5.177895
v 16.647497 3.787216 -4.904625
v 16.655220 3.784706 -4.944947
v 16.667945 3.780572 -4.983876
v 16.685454 3.774883 -5.020748
v 16.707447 3.767737 -5.054931
v 16.733548 3.759256 -5.085840
v 16.763311 3.749585 -5.112947
v 16.796226 3.738891 -5.135787
v 16.831730 3.727355 -5.153970
v 16.869216 3.715175 -5.167185
v 16.908042 3.702559 -5.175206
v 16.947544 3.689725 -5.177895
v 16.622219 3.627613 -4.904625
v 16.630339 3.627613 -4.944947
v 16.643719 3.627613 -4.983876
v 16.662128 3.627613 -5.020748
v 16.685253 3.627613 -5.054931
v 16.712698 3.627613 -5.085840
v 16.743992 3.627613 -5.112947
v 16.778601 3.627613 -5.135787
v 16.815933 3.627613 -5.153970
v 16.855348 3.627613 -5.167185
v 16.896172 3.627613 -5.175206
v 16.937707 3.627613 -5.177895
v 16.647497 3.468011 -4.904625
v 16.655220 3.470521 -4.944947
v 16.667945 3.474655 -4.983876
v 16.685454 3.480344 -5.020748
v 16.707447 3.487490 -5.054931
v 16.733548 3.495971 -5.085840
v 16.763311 3.505642 -5.112947
v 16.796226 3.516336 -5.135787
v 16.831730 3.527873 -5.153970
v 16.869216 3.540052 -5.167185
v 16.908042 3.552668 -5.175206
v 16.947544 3.565502 -5.177895
v 16.720858 3.324032 -4.904625
v 16.727428 3.328805 -4.944947
v 16.738252 3.336670 -4.983876
v 16.753146 3.347491 -5.020748
v 16.771854 3.361083 -5.054931
v 16.794057 3.377214 -5.085840
v 16.819375 3.395609 -5.112947
v 16.847375 3.415952 -5.135787
v 16.877576 3.437895 -5.153970
v 16.909464 3.461062 -5.167185
v 16.942491 3.485058 -5.175206
v 16.976093 3.509471 -5.177895
v 16.835121 3.209769 -4.904625
v 16.839894 3.216339 -4.944947
v 16.847758 3.227164 -4.983876
v 16.858579 3.242057 -5.020748
v 16.872172 3.260766 -5.054931
v 16.888303 3.282969 -5.085840
v 16.906698 3.308286 -5.112947
v 16.927040 3.336286 -5.135787
v 16.948983 3.366487 -5.153970
v 16.972151 3.398375 -5.167185
v 16.996147 3.431403 -5.175206
v 17.020560 3.465005 -5.177895
v 16.979100 3.136408 -4.904625
v 16.981609 3.144131 -4.944947
v 16.985744 3.156856 -4.983876
v 16.991433 3.174365 -5.020748
v 16.998579 3.196358 -5.054931
v 17.007060 3.222459 -5.085840
v 17.016730 3.252222 -5.112947
v 17.027425 3.285137 -5.135787
v 17.038961 3.320642 -5.153970
v 17.051141 3.358128 -5.167185
v 17.063756 3.396954 -5.175206
v 17.076591 3.436456 -5.177895
v 17.138702 3.111129 -4.904625
v 17.138702 3.119250 -4.944947
v 17.138702 3.132630 -4.983876
v 17.138702 3.151039 -5.020748
v 17.138702 3.174165 -5.054931
v 17.138702 3.201609 -5.085840
v 17.138702 3.232904 -5.112947
v 17.138702 3.267513 -5.135787
v 17.138702 3.304844 -5.153970
v 17.138702 3.344259 -5.167185
v 17.138702 3.385083 -5.175206
v 17.138702 3.426618 -5.177895
v 17.298304 3.136408 -4.904625
v 17.295795 3.144131 -4.944947
v 17.291660 3.156856 -4.983876
v 17.285972 3.174365 -5.020748
v 17.278825 3.196358 -5.054931
v 17.270345 3.222459 -5.085840
v 17.260674 3.252222 -5.112947
v 17.249979 3.285137 -5.135787
v 17.238443 3.320642 -5.153970
v 17.226263 3.358128 -5.167185
v 17.213648 3.396954 -5.175206
v 17.200813 3.436456 -5.177895
v 17.442284 3.209769 -4.904625
v 17.437510 3.216339 -4.944947
v 17.429646 3.227164 -4.983876
v 17.418825 3.242057 -5.020748
v 17.405233 3.260766 -5.054931
v 17.389101 3.282969 -5.085840
v 17.370707 3.308286 -5.112947
v 17.350364 3.336286 -5.135787
v 17.328421 3.366487 -5.153970
v 17.305254 3.398375 -5.167185
v 17.281258 3.431403 -5.175206
v 17.256844 3.465005 -5.177895
v 17.556546 3.324032 -4.904625
v 17.549977 3.328805 -4.944947
v 17.539152 3.336670 -4.983876
v 17.524258 3.347491 -5.020748
v 17.505550 3.361083 -5.054931
v 17.483347 3.377214 -5.085840
v 17.458029 3.395609 -5.112947
v 17.430030 3.415952 -5.135787
v 17.399828 3.437895 -5.153970
v 17.367941 3.461062 -5.167185
v 17.334913 3.485058 -5.175206
v 17.301311 3.509471 -5.177895
v 17.629907 3.468011 -4.904625
v 17.622184 3.470521 -4.944947
v 17.609460 3.474655 -4.983876
v 17.591951 3.480344 -5.020748
v 17.569958 3.487490 -5.054931
v 17.543856 3.495971 -5.085840
v 17.514093 3.505642 -5.112947
v 17.481178 3.516336 -5.135787
v 17.445674 3.527873 -5.153970
v 17.408188 3.540052 -5.167185
v 17.369362 3.552668 -5.175206
v 17.329860 3.565502 -5.177895
v 17.655186 3.627613 -4.904625
v 17.647065 3.627613 -4.944947
v 17.633686 3.627613 -4.983876
v 17.615276 3.627613 -5.020748
v 17.592151 3.627613 -5.054931
v 17.564706 3.627613 -5.085840
v 17.533412 3.627613 -5.112947
v 17.498803 3.627613 -5.135787
v 17.461471 3.627614 -5.153970
v 17.422056 3.627614 -5.167185
v 17.381232 3.627614 -5.175206
v 17.339697 3.627614 -5.177895
vt 0.648603 0.107966
vt 0.626409 0.064408
vt 0.591842 0.029841
vt 0.548284 0.007647
vt 0.500000 -0.000000
vt 0.451716 0.007647
vt 0.408159 0.029841
vt 0.373591 0.064409
vt 0.351397 0.107966
vt 0.343750 0.156250
vt 0.351397 0.204534
vt 0.373591 0.248091
vt 0.408159 0.282659
vt 0.451716 0.304853
vt 0.500000 0.312500
vt 0.548284 0.304853
vt 0.591841 0.282659
vt 0.626409 0.248091
vt 0.648603 0.204534
vt 0.656250 0.156250
vt 0.500000 0.150000
vt 0.375000 0.312519
vt 0.387500 0.312519
vt 0.400000 0.312519
vt 0.412500 0.312519
vt 0.425000 0.312519
vt 0.437500 0.312519
vt 0.450000 0.312519
vt 0.462500 0.312519
vt 0.475000 0.312519
vt 0.487500 0.312519
vt 0.500000 0.312519
vt 0.512500 0.312519
vt 0.525000 0.312519
vt 0.537500 0.312519
vt 0.550000 0.312519
vt 0.562500 0.312519
vt 0.575000 0.312519
vt 0.587500 0.312519
vt 0.600000 0.312519
vt 0.612500 0.312519
vt 0.625000 0.312519
vt 0.548936 0.875473
vt 0.535554 0.888855
vt 0.518692 0.897447
vt 0.500000 0.900407
vt 0.481308 0.897447
vt 0.464446 0.888855
vt 0.451064 0.875473
vt 0.442473 0.858611
vt 0.439512 0.839920
vt 0.442473 0.821228
vt 0.451064 0.804366
vt 0.464446 0.790984
vt 0.481308 0.782392
vt 0.500000 0.779432
vt 0.518692 0.782392
vt 0.535554 0.790984
vt 0.548936 0.804366
vt 0.557527 0.821228
vt 0.560488 0.839920
vt 0.557527 0.858611
vt 0.500000 0.837500
vt 0.375000 0.381163
vt 0.625000 0.381162
vt 0.375000 0.448725
vt 0.625000 0.448725
vt 0.375000 0.514186
vt 0.625000 0.514185
vt 0.375000 0.576553
vt 0.625000 0.576553
vt 0.375000 0.634910
vt 0.625000 0.634910
vt 0.375000 0.688440
vt 0.648603 0.892034
vt 0.625000 0.688440
vt 0.620180 0.882076
vt 0.599055 0.874524
vt 0.583507 0.868825
vt 0.572162 0.864534
vt 0.563850 0.861259
vt 0.387500 0.379464
vt 0.387500 0.445568
vt 0.387500 0.510071
vt 0.387500 0.572304
vt 0.387500 0.631793
vt 0.387500 0.688440
vt 0.626409 0.935591
vt 0.602232 0.917302
vt 0.584261 0.903558
vt 0.571035 0.893302
vt 0.561385 0.885686
vt 0.554314 0.879974
vt 0.400000 0.378464
vt 0.400000 0.443755
vt 0.400000 0.507820
vt 0.400000 0.570161
vt 0.400000 0.630425
vt 0.400000 0.688440
vt 0.591841 0.970159
vt 0.574276 0.945258
vt 0.561219 0.926600
vt 0.551610 0.912727
vt 0.544599 0.902472
vt 0.539461 0.894826
vt 0.412500 0.377896
vt 0.412500 0.442746
vt 0.412500 0.506609
vt 0.412500 0.569065
vt 0.412500 0.629769
vt 0.412500 0.688440
vt 0.548284 0.992353
vt 0.539049 0.963207
vt 0.532185 0.941394
vt 0.527133 0.925199
vt 0.523447 0.913250
vt 0.520746 0.904362
vt 0.425000 0.377581
vt 0.425000 0.442195
vt 0.425000 0.505962
vt 0.425000 0.568497
vt 0.425000 0.629439
vt 0.425000 0.688440
vt 0.500000 1.000000
vt 0.500000 0.969392
vt 0.500000 0.946491
vt 0.500000 0.929497
vt 0.500000 0.916963
vt 0.500000 0.907648
vt 0.437500 0.377410
vt 0.437500 0.441897
vt 0.437500 0.505618
vt 0.437500 0.568199
vt 0.437500 0.629269
vt 0.437500 0.688440
vt 0.451716 0.992353
vt 0.460951 0.963207
vt 0.467815 0.941394
vt 0.472867 0.925199
vt 0.476553 0.913250
vt 0.479254 0.904362
vt 0.450000 0.377318
vt 0.450000 0.441738
vt 0.450000 0.505435
vt 0.450000 0.568043
vt 0.450000 0.629180
vt 0.450000 0.688440
vt 0.408159 0.970159
vt 0.425724 0.945258
vt 0.438781 0.926600
vt 0.448390 0.912727
vt 0.455401 0.902472
vt 0.460539 0.894827
vt 0.462500 0.377269
vt 0.462500 0.441654
vt 0.462500 0.505339
vt 0.462500 0.567961
vt 0.462500 0.629134
vt 0.462500 0.688440
vt 0.373591 0.935591
vt 0.397768 0.917302
vt 0.415739 0.903558
vt 0.428965 0.893302
vt 0.438615 0.885686
vt 0.445686 0.879974
vt 0.475000 0.377243
vt 0.475000 0.441610
vt 0.475000 0.505289
vt 0.475000 0.567918
vt 0.475000 0.629110
vt 0.475000 0.688440
vt 0.351397 0.892034
vt 0.379820 0.882076
vt 0.400945 0.874524
vt 0.416493 0.868825
vt 0.427838 0.864534
vt 0.436150 0.861259
vt 0.487500 0.377231
vt 0.487500 0.441589
vt 0.487500 0.505265
vt 0.487500 0.567898
vt 0.487500 0.629099
vt 0.487500 0.688440
vt 0.343750 0.843750
vt 0.373635 0.843027
vt 0.395848 0.842339
vt 0.412196 0.841692
vt 0.424124 0.841087
vt 0.432864 0.840513
vt 0.500000 0.377228
vt 0.500000 0.441583
vt 0.500000 0.505259
vt 0.500000 0.567892
vt 0.500000 0.629095
vt 0.500000 0.688440
vt 0.351397 0.795466
vt 0.379820 0.803978
vt 0.400945 0.810154
vt 0.416493 0.814559
vt 0.427838 0.817640
vt 0.436150 0.819766
vt 0.512500 0.377231
vt 0.512500 0.441589
vt 0.512500 0.505265
vt 0.512500 0.567898
vt 0.512500 0.629099
vt 0.512500 0.688440
vt 0.373591 0.751909
vt 0.397768 0.768751
vt 0.415739 0.781120
vt 0.428965 0.790082
vt 0.438615 0.796489
vt 0.445686 0.801051
vt 0.525000 0.377243
vt 0.525000 0.441610
vt 0.525000 0.505289
vt 0.525000 0.567918
vt 0.525000 0.629110
vt 0.525000 0.688440
vt 0.408159 0.717341
vt 0.425724 0.740795
vt 0.438781 0.758078
vt 0.448390 0.770657
vt 0.455401 0.779702
vt 0.460539 0.786199
vt 0.537500 0.377269
vt 0.537500 0.441653
vt 0.537500 0.505339
vt 0.537500 0.567960
vt 0.537500 0.629134
vt 0.537500 0.688440
vt 0.451716 0.695147
vt 0.460951 0.722846
vt 0.467815 0.743284
vt 0.472867 0.758185
vt 0.476553 0.768925
vt 0.479254 0.776663
vt 0.550000 0.377318
vt 0.550000 0.441738
vt 0.550000 0.505435
vt 0.550000 0.568043
vt 0.550000 0.629180
vt 0.550000 0.688440
vt 0.500000 0.687500
vt 0.500000 0.716661
vt 0.500000 0.738187
vt 0.500000 0.753888
vt 0.500000 0.765211
vt 0.500000 0.773377
vt 0.562500 0.377410
vt 0.562500 0.441897
vt 0.562500 0.505618
vt 0.562500 0.568199
vt 0.562500 0.629269
vt 0.562500 0.688440
vt 0.548284 0.695147
vt 0.539049 0.722846
vt 0.532185 0.743284
vt 0.527133 0.758185
vt 0.523447 0.768925
vt 0.520746 0.776663
vt 0.575000 0.377581
vt 0.575000 0.442195
vt 0.575000 0.505962
vt 0.575000 0.568497
vt 0.575000 0.629439
vt 0.575000 0.688440
vt 0.591842 0.717341
vt 0.574276 0.740795
vt 0.561219 0.758078
vt 0.551610 0.770657
vt 0.544599 0.779702
vt 0.539461 0.786198
vt 0.587500 0.377896
vt 0.587500 0.442746
vt 0.587500 0.506609
vt 0.587500 0.569065
vt 0.587500 0.629769
vt 0.587500 0.688440
vt 0.626409 0.751908
vt 0.602232 0.768751
vt 0.584261 0.781120
vt 0.571035 0.790082
vt 0.561385 0.796489
vt 0.554314 0.801051
vt 0.600000 0.378464
vt 0.600000 0.443755
vt 0.600000 0.507820
vt 0.600000 0.570161
vt 0.600000 0.630425
vt 0.600000 0.688440
vt 0.648603 0.795466
vt 0.620180 0.803978
vt 0.599055 0.810154
vt 0.583507 0.814559
vt 0.572162 0.817640
vt 0.563850 0.819766
vt 0.612500 0.379464
vt 0.612500 0.445568
vt 0.612500 0.510071
vt 0.612500 0.572304
vt 0.612500 0.631793
vt 0.656250 0.843750
vt 0.612500 0.688440
vt 0.626365 0.843027
vt 0.604152 0.842339
vt 0.587804 0.841692
vt 0.575876 0.841087
vt 0.567136 0.840513
vn 0.000024 0.000018 1.000000
vn 0.000029 0.000009 1.000000
vn 0.000000 -0.000000 1.000000
vn 0.000018 0.000024 1.000000
vn 0.000009 0.000029 1.000000
vn -0.000000 0.000030 1.000000
vn -0.000009 0.000029 1.000000
vn -0.000018 0.000024 1.000000
vn -0.000024 0.000018 1.000000
vn -0.000029 0.000009 1.000000
vn -0.000030 0.000000 1.000000
vn -0.000029 -0.000009 1.000000
vn -0.000024 -0.000018 1.000000
vn -0.000018 -0.000024 1.000000
vn -0.000009 -0.000029 1.000000
vn 0.000000 -0.000030 1.000000
vn 0.000009 -0.000029 1.000000
vn 0.000018 -0.000024 1.000000
vn 0.000024 -0.000018 1.000000
vn 0.000029 -0.000009 1.000000
vn 0.000030 0.000000 1.000000
vn 0.021999 0.007148 -0.999732
vn 0.018714 0.013596 -0.999732
vn -0.000000 0.000000 -1.000000
vn 0.013596 0.018714 -0.999732
vn 0.007148 0.022000 -0.999732
vn -0.000000 0.023132 -0.999732
vn -0.007148 0.021999 -0.999732
vn -0.013596 0.018714 -0.999732
vn -0.018714 0.013596 -0.999732
vn -0.021999 0.007148 -0.999732
vn -0.023132 -0.000000 -0.999732
vn -0.021999 -0.007148 -0.999732
vn -0.018714 -0.013596 -0.999732
vn -0.013596 -0.018714 -0.999732
vn -0.007148 -0.021999 -0.999732
vn 0.000000 -0.023132 -0.999732
vn 0.007148 -0.021999 -0.999732
vn 0.013596 -0.018714 -0.999732
vn 0.018714 -0.013596 -0.999732
vn 0.021999 -0.007148 -0.999732
vn 0.023132 -0.000000 -0.999732
vn 0.133317 0.043317 -0.990126
vn 0.140178 -0.000000 -0.990126
vn 0.252016 0.081885 -0.964252
vn 0.264985 -0.000000 -0.964252
vn 0.366928 0.119221 -0.922578
vn 0.385810 -0.000000 -0.922578
vn 0.476340 0.154772 -0.865532
vn 0.500853 -0.000001 -0.865533
vn 0.578358 0.187919 -0.793844
vn 0.608122 -0.000001 -0.793844
vn 0.671148 0.218068 -0.708524
vn 0.705687 -0.000001 -0.708524
vn 0.752990 0.244660 -0.610857
vn 0.791741 -0.000001 -0.610857
vn 0.822311 0.267184 -0.502412
vn 0.864628 -0.000001 -0.502412
vn 0.877749 0.285197 -0.384993
vn 0.922919 -0.000001 -0.384993
vn 0.918189 0.298337 -0.260622
vn 0.965441 -0.000001 -0.260623
vn 0.948971 0.308338 -0.066190
vn 0.942800 0.306333 -0.131488
vn 0.991318 -0.000001 -0.131488
vn 0.997807 -0.000001 -0.066189
vn 0.113406 0.082395 -0.990126
vn 0.214378 0.155755 -0.964252
vn 0.312127 0.226774 -0.922578
vn 0.405198 0.294394 -0.865533
vn 0.491981 0.357445 -0.793844
vn 0.570913 0.414793 -0.708523
vn 0.640531 0.465373 -0.610858
vn 0.699498 0.508216 -0.502413
vn 0.746658 0.542479 -0.384992
vn 0.781058 0.567472 -0.260622
vn 0.801993 0.582682 -0.131489
vn 0.807243 0.586496 -0.066191
vn 0.082395 0.113407 -0.990126
vn 0.155755 0.214378 -0.964252
vn 0.226773 0.312127 -0.922578
vn 0.294394 0.405198 -0.865533
vn 0.357445 0.491981 -0.793844
vn 0.414793 0.570913 -0.708523
vn 0.465373 0.640532 -0.610857
vn 0.508215 0.699499 -0.502412
vn 0.542478 0.746658 -0.384993
vn 0.567472 0.781058 -0.260623
vn 0.582682 0.801993 -0.131489
vn 0.586496 0.807243 -0.066189
vn 0.043317 0.133317 -0.990126
vn 0.081885 0.252016 -0.964252
vn 0.119222 0.366927 -0.922578
vn 0.154771 0.476339 -0.865533
vn 0.187919 0.578358 -0.793844
vn 0.218069 0.671148 -0.708524
vn 0.244661 0.752990 -0.610858
vn 0.267185 0.822311 -0.502412
vn 0.285198 0.877749 -0.384993
vn 0.298337 0.918189 -0.260624
vn 0.306334 0.942799 -0.131488
vn 0.308339 0.948971 -0.066189
vn -0.000000 0.140178 -0.990126
vn -0.000000 0.264985 -0.964252
vn -0.000000 0.385811 -0.922578
vn -0.000000 0.500853 -0.865533
vn -0.000000 0.608121 -0.793844
vn -0.000000 0.705687 -0.708524
vn -0.000000 0.791740 -0.610858
vn -0.000000 0.864629 -0.502411
vn -0.000000 0.922920 -0.384992
vn -0.000000 0.965440 -0.260624
vn -0.000000 0.991318 -0.131489
vn -0.000000 0.997807 -0.066190
vn -0.043317 0.133317 -0.990126
vn -0.081885 0.252016 -0.964252
vn -0.119222 0.366927 -0.922578
vn -0.154771 0.476339 -0.865533
vn -0.187919 0.578358 -0.793844
vn -0.218069 0.671149 -0.708523
vn -0.244661 0.752990 -0.610858
vn -0.267185 0.822311 -0.502411
vn -0.285198 0.877749 -0.384992
vn -0.298337 0.918188 -0.260624
vn -0.306334 0.942799 -0.131489
vn -0.308339 0.948971 -0.066188
vn -0.082395 0.113407 -0.990126
vn -0.155755 0.214378 -0.964252
vn -0.226773 0.312127 -0.922578
vn -0.294393 0.405198 -0.865533
vn -0.357445 0.491981 -0.793844
vn -0.414793 0.570913 -0.708523
vn -0.465374 0.640532 -0.610857
vn -0.508216 0.699499 -0.502412
vn -0.542478 0.746658 -0.384993
vn -0.567472 0.781058 -0.260623
vn -0.582682 0.801993 -0.131488
vn -0.586497 0.807243 -0.066188
vn -0.113406 0.082394 -0.990126
vn -0.214378 0.155755 -0.964252
vn -0.312127 0.226773 -0.922578
vn -0.405198 0.294393 -0.865533
vn -0.491981 0.357444 -0.793844
vn -0.570913 0.414792 -0.708523
vn -0.640532 0.465373 -0.610857
vn -0.699499 0.508215 -0.502413
vn -0.746658 0.542478 -0.384993
vn -0.781058 0.567472 -0.260622
vn -0.801993 0.582681 -0.131488
vn -0.807243 0.586496 -0.066190
vn -0.133317 0.043317 -0.990126
vn -0.252016 0.081885 -0.964252
vn -0.366928 0.119222 -0.922578
vn -0.476339 0.154772 -0.865533
vn -0.578358 0.187920 -0.793844
vn -0.671148 0.218069 -0.708524
vn -0.752990 0.244661 -0.610857
vn -0.822310 0.267185 -0.502412
vn -0.877749 0.285197 -0.384993
vn -0.918189 0.298337 -0.260622
vn -0.942799 0.306334 -0.131489
vn -0.948971 0.308339 -0.066192
vn -0.140178 -0.000000 -0.990126
vn -0.264985 0.000000 -0.964253
vn -0.385810 0.000000 -0.922578
vn -0.500853 0.000000 -0.865532
vn -0.608121 0.000000 -0.793844
vn -0.705687 0.000000 -0.708524
vn -0.791741 0.000000 -0.610857
vn -0.864628 0.000000 -0.502412
vn -0.922920 0.000000 -0.384993
vn -0.965441 0.000000 -0.260622
vn -0.991318 0.000000 -0.131489
vn -0.997807 0.000000 -0.066191
vn -0.133317 -0.043317 -0.990126
vn -0.252016 -0.081885 -0.964252
vn -0.366927 -0.119222 -0.922578
vn -0.476339 -0.154772 -0.865533
vn -0.578358 -0.187920 -0.793844
vn -0.671148 -0.218070 -0.708523
vn -0.752991 -0.244662 -0.610857
vn -0.822310 -0.267185 -0.502413
vn -0.877748 -0.285198 -0.384993
vn -0.918189 -0.298338 -0.260623
vn -0.942799 -0.306335 -0.131488
vn -0.948971 -0.308339 -0.066188
vn -0.113406 -0.082394 -0.990126
vn -0.214378 -0.155754 -0.964252
vn -0.312127 -0.226773 -0.922578
vn -0.405198 -0.294394 -0.865533
vn -0.491981 -0.357445 -0.793844
vn -0.570914 -0.414793 -0.708522
vn -0.640533 -0.465374 -0.610856
vn -0.699499 -0.508216 -0.502412
vn -0.746657 -0.542479 -0.384994
vn -0.781057 -0.567472 -0.260625
vn -0.801993 -0.582682 -0.131488
vn -0.807243 -0.586496 -0.066187
vn -0.082394 -0.113406 -0.990126
vn -0.155754 -0.214378 -0.964253
vn -0.226773 -0.312127 -0.922578
vn -0.294394 -0.405198 -0.865533
vn -0.357445 -0.491981 -0.793844
vn -0.414792 -0.570913 -0.708523
vn -0.465374 -0.640532 -0.610856
vn -0.508217 -0.699500 -0.502410
vn -0.542479 -0.746657 -0.384995
vn -0.567472 -0.781057 -0.260626
vn -0.582683 -0.801992 -0.131488
vn -0.586497 -0.807242 -0.066188
vn -0.043318 -0.133317 -0.990126
vn -0.081885 -0.252016 -0.964252
vn -0.119222 -0.366927 -0.922578
vn -0.154772 -0.476339 -0.865533
vn -0.187920 -0.578359 -0.793844
vn -0.218069 -0.671149 -0.708523
vn -0.244661 -0.752990 -0.610858
vn -0.267186 -0.822311 -0.502411
vn -0.285198 -0.877749 -0.384993
vn -0.298337 -0.918187 -0.260627
vn -0.306334 -0.942799 -0.131488
vn -0.308340 -0.948971 -0.066185
vn 0.000000 -0.140178 -0.990126
vn 0.000000 -0.264986 -0.964252
vn -0.000000 -0.385810 -0.922578
vn -0.000000 -0.500852 -0.865533
vn -0.000000 -0.608122 -0.793844
vn -0.000000 -0.705688 -0.708523
vn -0.000000 -0.791740 -0.610859
vn 0.000000 -0.864628 -0.502412
vn 0.000000 -0.922921 -0.384990
vn -0.000000 -0.965439 -0.260628
vn 0.000000 -0.991318 -0.131489
vn 0.000000 -0.997808 -0.066182
vn 0.043318 -0.133317 -0.990126
vn 0.081885 -0.252016 -0.964252
vn 0.119222 -0.366927 -0.922578
vn 0.154772 -0.476339 -0.865533
vn 0.187920 -0.578358 -0.793844
vn 0.218069 -0.671149 -0.708523
vn 0.244661 -0.752990 -0.610858
vn 0.267186 -0.822311 -0.502411
vn 0.285198 -0.877749 -0.384993
vn 0.298337 -0.918188 -0.260627
vn 0.306334 -0.942799 -0.131488
vn 0.308340 -0.948971 -0.066185
vn 0.082394 -0.113406 -0.990126
vn 0.155754 -0.214378 -0.964253
vn 0.226773 -0.312127 -0.922578
vn 0.294394 -0.405198 -0.865533
vn 0.357445 -0.491981 -0.793844
vn 0.414793 -0.570913 -0.708523
vn 0.465374 -0.640532 -0.610856
vn 0.508217 -0.699500 -0.502410
vn 0.542479 -0.746656 -0.384995
vn 0.567472 -0.781057 -0.260626
vn 0.582683 -0.801992 -0.131488
vn 0.586497 -0.807242 -0.066188
vn 0.113406 -0.082394 -0.990126
vn 0.214378 -0.155754 -0.964252
vn 0.312127 -0.226773 -0.922578
vn 0.405198 -0.294394 -0.865533
vn 0.491981 -0.357445 -0.793844
vn 0.570914 -0.414793 -0.708522
vn 0.640533 -0.465374 -0.610856
vn 0.699499 -0.508216 -0.502412
vn 0.746657 -0.542479 -0.384994
vn 0.781057 -0.567472 -0.260625
vn 0.801993 -0.582682 -0.131488
vn 0.807243 -0.586496 -0.066187
vn 0.133317 -0.043317 -0.990126
vn 0.252016 -0.081885 -0.964252
vn 0.366927 -0.119222 -0.922578
vn 0.476339 -0.154772 -0.865533
vn 0.578358 -0.187920 -0.793844
vn 0.671149 -0.218070 -0.708523
vn 0.752990 -0.244662 -0.610857
vn 0.822310 -0.267185 -0.502413
vn 0.877748 -0.285198 -0.384993
vn 0.918188 -0.298337 -0.260624
vn 0.942799 -0.306334 -0.131488
vn 0.948971 -0.308339 -0.066188
s 1
g pCylinder75
usemtl phong11SG
f 44/86/83 43/85/84 63/105/85
f 45/87/86 44/86/83 63/105/85
f 46/88/87 45/87/86 63/105/85
f 47/89/88 46/88/87 63/105/85
f 48/90/89 47/89/88 63/105/85
f 49/91/90 48/90/89 63/105/85
f 50/92/91 49/91/90 63/105/85
f 51/93/92 50/92/91 63/105/85
f 52/94/93 51/93/92 63/105/85
f 53/95/94 52/94/93 63/105/85
f 54/96/95 53/95/94 63/105/85
f 55/97/96 54/96/95 63/105/85
f 56/98/97 55/97/96 63/105/85
f 57/99/98 56/98/97 63/105/85
f 58/100/99 57/99/98 63/105/85
f 59/101/100 58/100/99 63/105/85
f 60/102/101 59/101/100 63/105/85
f 61/103/102 60/102/101 63/105/85
f 62/104/103 61/103/102 63/105/85
f 43/85/84 62/104/103 63/105/85
s 2
f 76/146/104 88/127/105 64/147/106
f 88/127/105 100/128/107 64/147/106
f 100/128/107 112/129/108 64/147/106
f 112/129/108 124/130/109 64/147/106
f 124/130/109 136/131/110 64/147/106
f 136/131/110 148/132/111 64/147/106
f 148/132/111 160/133/112 64/147/106
f 160/133/112 172/134/113 64/147/106
f 172/134/113 184/135/114 64/147/106
f 184/135/114 196/136/115 64/147/106
f 196/136/115 208/137/116 64/147/106
f 208/137/116 220/138/117 64/147/106
f 220/138/117 232/139/118 64/147/106
f 232/139/118 244/140/119 64/147/106
f 244/140/119 256/141/120 64/147/106
f 256/141/120 268/142/121 64/147/106
f 268/142/121 280/143/122 64/147/106
f 280/143/122 292/144/123 64/147/106
f 292/144/123 304/145/124 64/147/106
f 304/145/124 76/146/104 64/147/106
f 75/165/125 76/146/104 304/145/124 303/393/126
f 74/164/127 75/165/125 303/393/126 302/392/128
f 73/163/129 74/164/127 302/392/128 301/391/130
f 72/162/131 73/163/129 301/391/130 300/390/132
f 71/161/133 72/162/131 300/390/132 299/389/134
f 70/159/135 71/161/133 299/389/134 298/387/136
f 69/157/137 70/160/135 298/388/136 297/386/138
f 68/155/139 69/157/137 297/386/138 296/385/140
f 67/153/141 68/155/139 296/385/140 295/384/142
f 66/151/143 67/153/141 295/384/142 294/383/144
f 43/126/145 65/149/146 293/382/147 62/125/148
f 65/149/146 66/151/143 294/383/144 293/382/147
f 76/146/104 75/165/125 87/177/149 88/127/105
f 75/165/125 74/164/127 86/176/150 87/177/149
f 74/164/127 73/163/129 85/175/151 86/176/150
f 73/163/129 72/162/131 84/174/152 85/175/151
f 72/162/131 71/161/133 83/173/153 84/174/152
f 71/161/133 70/159/135 82/172/154 83/173/153
f 70/158/135 69/156/137 81/170/155 82/171/154
f 69/156/137 68/154/139 80/169/156 81/170/155
f 68/154/139 67/152/141 79/168/157 80/169/156
f 67/152/141 66/150/143 78/167/158 79/168/157
f 66/150/143 65/148/146 77/166/159 78/167/158
f 65/148/146 43/106/145 44/107/160 77/166/159
f 88/127/105 87/177/149 99/189/161 100/128/107
f 87/177/149 86/176/150 98/188/162 99/189/161
f 86/176/150 85/175/151 97/187/163 98/188/162
f 85/175/151 84/174/152 96/186/164 97/187/163
f 84/174/152 83/173/153 95/185/165 96/186/164
f 83/173/153 82/172/154 94/184/166 95/185/165
f 82/171/154 81/170/155 93/182/167 94/183/166
f 81/170/155 80/169/156 92/181/168 93/182/167
f 80/169/156 79/168/157 91/180/169 92/181/168
f 79/168/157 78/167/158 90/179/170 91/180/169
f 78/167/158 77/166/159 89/178/171 90/179/170
f 77/166/159 44/107/160 45/108/172 89/178/171
f 100/128/107 99/189/161 111/201/173 112/129/108
f 99/189/161 98/188/162 110/200/174 111/201/173
f 98/188/162 97/187/163 109/199/175 110/200/174
f 97/187/163 96/186/164 108/198/176 109/199/175
f 96/186/164 95/185/165 107/197/177 108/198/176
f 95/185/165 94/184/166 106/196/178 107/197/177
f 94/183/166 93/182/167 105/194/179 106/195/178
f 93/182/167 92/181/168 104/193/180 105/194/179
f 92/181/168 91/180/169 103/192/181 104/193/180
f 91/180/169 90/179/170 102/191/182 103/192/181
f 90/179/170 89/178/171 101/190/183 102/191/182
f 89/178/171 45/108/172 46/109/184 101/190/183
f 112/129/108 111/201/173 123/213/185 124/130/109
f 111/201/173 110/200/174 122/212/186 123/213/185
f 110/200/174 109/199/175 121/211/187 122/212/186
f 109/199/175 108/198/176 120/210/188 121/211/187
f 108/198/176 107/197/177 119/209/189 120/210/188
f 107/197/177 106/196/178 118/208/190 119/209/189
f 106/195/178 105/194/179 117/206/191 118/207/190
f 105/194/179 104/193/180 116/205/192 117/206/191
f 104/193/180 103/192/181 115/204/193 116/205/192
f 103/192/181 102/191/182 114/203/194 115/204/193
f 102/191/182 101/190/183 113/202/195 114/203/194
f 101/190/183 46/109/184 47/110/196 113/202/195
f 124/130/109 123/213/185 135/225/197 136/131/110
f 123/213/185 122/212/186 134/224/198 135/225/197
f 122/212/186 121/211/187 133/223/199 134/224/198
f 121/211/187 120/210/188 132/222/200 133/223/199
f 120/210/188 119/209/189 131/221/201 132/222/200
f 119/209/189 118/208/190 130/220/202 131/221/201
f 118/207/190 117/206/191 129/218/203 130/219/202
f 117/206/191 116/205/192 128/217/204 129/218/203
f 116/205/192 115/204/193 127/216/205 128/217/204
f 115/204/193 114/203/194 126/215/206 127/216/205
f 114/203/194 113/202/195 125/214/207 126/215/206
f 113/202/195 47/110/196 48/111/208 125/214/207
f 136/131/110 135/225/197 147/237/209 148/132/111
f 135/225/197 134/224/198 146/236/210 147/237/209
f 134/224/198 133/223/199 145/235/211 146/236/210
f 133/223/199 132/222/200 144/234/212 145/235/211
f 132/222/200 131/221/201 143/233/213 144/234/212
f 131/221/201 130/220/202 142/232/214 143/233/213
f 130/219/202 129/218/203 141/230/215 142/231/214
f 129/218/203 128/217/204 140/229/216 141/230/215
f 128/217/204 127/216/205 139/228/217 140/229/216
f 127/216/205 126/215/206 138/227/218 139/228/217
f 126/215/206 125/214/207 137/226/219 138/227/218
f 125/214/207 48/111/208 49/112/220 137/226/219
f 148/132/111 147/237/209 159/249/221 160/133/112
f 147/237/209 146/236/210 158/248/222 159/249/221
f 146/236/210 145/235/211 157/247/223 158/248/222
f 145/235/211 144/234/212 156/246/224 157/247/223
f 144/234/212 143/233/213 155/245/225 156/246/224
f 143/233/213 142/232/214 154/244/226 155/245/225
f 142/231/214 141/230/215 153/242/227 154/243/226
f 141/230/215 140/229/216 152/241/228 153/242/227
f 140/229/216 139/228/217 151/240/229 152/241/228
f 139/228/217 138/227/218 150/239/230 151/240/229
f 138/227/218 137/226/219 149/238/231 150/239/230
f 137/226/219 49/112/220 50/113/232 149/238/231
f 160/133/112 159/249/221 171/261/233 172/134/113
f 159/249/221 158/248/222 170/260/234 171/261/233
f 158/248/222 157/247/223 169/259/235 170/260/234
f 157/247/223 156/246/224 168/258/236 169/259/235
f 156/246/224 155/245/225 167/257/237 168/258/236
f 155/245/225 154/244/226 166/256/238 167/257/237
f 154/243/226 153/242/227 165/254/239 166/255/238
f 153/242/227 152/241/228 164/253/240 165/254/239
f 152/241/228 151/240/229 163/252/241 164/253/240
f 151/240/229 150/239/230 162/251/242 163/252/241
f 150/239/230 149/238/231 161/250/243 162/251/242
f 149/238/231 50/113/232 51/114/244 161/250/243
f 172/134/113 171/261/233 183/273/245 184/135/114
f 171/261/233 170/260/234 182/272/246 183/273/245
f 170/260/234 169/259/235 181/271/247 182/272/246
f 169/259/235 168/258/236 180/270/248 181/271/247
f 168/258/236 167/257/237 179/269/249 180/270/248
f 167/257/237 166/256/238 178/268/250 179/269/249
f 166/255/238 165/254/239 177/266/251 178/267/250
f 165/254/239 164/253/240 176/265/252 177/266/251
f 164/253/240 163/252/241 175/264/253 176/265/252
f 163/252/241 162/251/242 174/263/254 175/264/253
f 162/251/242 161/250/243 173/262/255 174/263/254
f 161/250/243 51/114/244 52/115/256 173/262/255
f 184/135/114 183/273/245 195/285/257 196/136/115
f 183/273/245 182/272/246 194/284/258 195/285/257
f 182/272/246 181/271/247 193/283/259 194/284/258
f 181/271/247 180/270/248 192/282/260 193/283/259
f 180/270/248 179/269/249 191/281/261 192/282/260
f 179/269/249 178/268/250 190/280/262 191/281/261
f 178/267/250 177/266/251 189/278/263 190/279/262
f 177/266/251 176/265/252 188/277/264 189/278/263
f 176/265/252 175/264/253 187/276/265 188/277/264
f 175/264/253 174/263/254 186/275/266 187/276/265
f 174/263/254 173/262/255 185/274/267 186/275/266
f 173/262/255 52/115/256 53/116/268 185/274/267
f 196/136/115 195/285/257 207/297/269 208/137/116
f 195/285/257 194/284/258 206/296/270 207/297/269
f 194/284/258 193/283/259 205/295/271 206/296/270
f 193/283/259 192/282/260 204/294/272 205/295/271
f 192/282/260 191/281/261 203/293/273 204/294/272
f 191/281/261 190/280/262 202/292/274 203/293/273
f 190/279/262 189/278/263 201/290/275 202/291/274
f 189/278/263 188/277/264 200/289/276 201/290/275
f 188/277/264 187/276/265 199/288/277 200/289/276
f 187/276/265 186/275/266 198/287/278 199/288/277
f 186/275/266 185/274/267 197/286/279 198/287/278
f 185/274/267 53/116/268 54/117/280 197/286/279
f 208/137/116 207/297/269 219/309/281 220/138/117
f 207/297/269 206/296/270 218/308/282 219/309/281
f 206/296/270 205/295/271 217/307/283 218/308/282
f 205/295/271 204/294/272 216/306/284 217/307/283
f 204/294/272 203/293/273 215/305/285 216/306/284
f 203/293/273 202/292/274 214/304/286 215/305/285
f 202/291/274 201/290/275 213/302/287 214/303/286
f 201/290/275 200/289/276 212/301/288 213/302/287
f 200/289/276 199/288/277 211/300/289 212/301/288
f 199/288/277 198/287/278 210/299/290 211/300/289
f 198/287/278 197/286/279 209/298/291 210/299/290
f 197/286/279 54/117/280 55/118/292 209/298/291
f 220/138/117 219/309/281 231/321/293 232/139/118
f 219/309/281 218/308/282 230/320/294 231/321/293
f 218/308/282 217/307/283 229/319/295 230/320/294
f 217/307/283 216/306/284 228/318/296 229/319/295
f 216/306/284 215/305/285 227/317/297 228/318/296
f 215/305/285 214/304/286 226/316/298 227/317/297
f 214/303/286 213/302/287 225/314/299 226/315/298
f 213/302/287 212/301/288 224/313/300 225/314/299
f 212/301/288 211/300/289 223/312/301 224/313/300
f 211/300/289 210/299/290 222/311/302 223/312/301
f 210/299/290 209/298/291 221/310/303 222/311/302
f 209/298/291 55/118/292 56/119/304 221/310/303
f 232/139/118 231/321/293 243/333/305 244/140/119
f 231/321/293 230/320/294 242/332/306 243/333/305
f 230/320/294 229/319/295 241/331/307 242/332/306
f 229/319/295 228/318/296 240/330/308 241/331/307
f 228/318/296 227/317/297 239/329/309 240/330/308
f 227/317/297 226/316/298 238/328/310 239/329/309
f 226/315/298 225/314/299 237/326/311 238/327/310
f 225/314/299 224/313/300 236/325/312 237/326/311
f 224/313/300 223/312/301 235/324/313 236/325/312
f 223/312/301 222/311/302 234/323/314 235/324/313
f 222/311/302 221/310/303 233/322/315 234/323/314
f 221/310/303 56/119/304 57/120/316 233/322/315
f 244/140/119 243/333/305 255/345/317 256/141/120
f 243/333/305 242/332/306 254/344/318 255/345/317
f 242/332/306 241/331/307 253/343/319 254/344/318
f 241/331/307 240/330/308 252/342/320 253/343/319
f 240/330/308 239/329/309 251/341/321 252/342/320
f 239/329/309 238/328/310 250/340/322 251/341/321
f 238/327/310 237/326/311 249/338/323 250/339/322
f 237/326/311 236/325/312 248/337/324 249/338/323
f 236/325/312 235/324/313 247/336/325 248/337/324
f 235/324/313 234/323/314 246/335/326 247/336/325
f 234/323/314 233/322/315 245/334/327 246/335/326
f 233/322/315 57/120/316 58/121/328 245/334/327
f 256/141/120 255/345/317 267/357/329 268/142/121
f 255/345/317 254/344/318 266/356/330 267/357/329
f 254/344/318 253/343/319 265/355/331 266/356/330
f 253/343/319 252/342/320 264/354/332 265/355/331
f 252/342/320 251/341/321 263/353/333 264/354/332
f 251/341/321 250/340/322 262/352/334 263/353/333
f 250/339/322 249/338/323 261/350/335 262/351/334
f 249/338/323 248/337/324 260/349/336 261/350/335
f 248/337/324 247/336/325 259/348/337 260/349/336
f 247/336/325 246/335/326 258/347/338 259/348/337
f 246/335/326 245/334/327 257/346/339 258/347/338
f 245/334/327 58/121/328 59/122/340 257/346/339
f 268/142/121 267/357/329 279/369/341 280/143/122
f 267/357/329 266/356/330 278/368/342 279/369/341
f 266/356/330 265/355/331 277/367/343 278/368/342
f 265/355/331 264/354/332 276/366/344 277/367/343
f 264/354/332 263/353/333 275/365/345 276/366/344
f 263/353/333 262/352/334 274/364/346 275/365/345
f 262/351/334 261/350/335 273/362/347 274/363/346
f 261/350/335 260/349/336 272/361/348 273/362/347
f 260/349/336 259/348/337 271/360/349 272/361/348
f 259/348/337 258/347/338 270/359/350 271/360/349
f 258/347/338 257/346/339 269/358/351 270/359/350
f 257/346/339 59/122/340 60/123/352 269/358/351
f 280/143/122 279/369/341 291/381/353 292/144/123
f 279/369/341 278/368/342 290/380/354 291/381/353
f 278/368/342 277/367/343 289/379/355 290/380/354
f 277/367/343 276/366/344 288/378/356 289/379/355
f 276/366/344 275/365/345 287/377/357 288/378/356
f 275/365/345 274/364/346 286/376/358 287/377/357
f 274/363/346 273/362/347 285/374/359 286/375/358
f 273/362/347 272/361/348 284/373/360 285/374/359
f 272/361/348 271/360/349 283/372/361 284/373/360
f 271/360/349 270/359/350 282/371/362 283/372/361
f 270/359/350 269/358/351 281/370/363 282/371/362
f 269/358/351 60/123/352 61/124/364 281/370/363
f 292/144/123 291/381/353 303/393/126 304/145/124
f 291/381/353 290/380/354 302/392/128 303/393/126
f 290/380/354 289/379/355 301/391/130 302/392/128
f 289/379/355 288/378/356 300/390/132 301/391/130
f 288/378/356 287/377/357 299/389/134 300/390/132
f 287/377/357 286/376/358 298/387/136 299/389/134
f 286/375/358 285/374/359 297/386/138 298/388/136
f 285/374/359 284/373/360 296/385/140 297/386/138
f 284/373/360 283/372/361 295/384/142 296/385/140
f 283/372/361 282/371/362 294/383/144 295/384/142
f 282/371/362 281/370/363 293/382/147 294/383/144
f 281/370/363 61/124/364 62/125/148 293/382/147
