# This file uses centimeters as units for non-parametric coordinates.

mtllib Light.mtl
g default
v 0.041809 -0.277554 -0.013584
v 0.035565 -0.277554 -0.025839
v 0.025839 -0.277554 -0.035565
v 0.013584 -0.277554 -0.041809
v 0.000000 -0.277554 -0.043960
v -0.013584 -0.277554 -0.041809
v -0.025839 -0.277554 -0.035565
v -0.035565 -0.277554 -0.025839
v -0.041809 -0.277554 -0.013584
v -0.043960 -0.277554 0.000000
v -0.041809 -0.277554 0.013584
v -0.035565 -0.277554 0.025839
v -0.025839 -0.277554 0.035565
v -0.013584 -0.277554 0.041809
v -0.000000 -0.277554 0.043960
v 0.013584 -0.277554 0.041809
v 0.025839 -0.277554 0.035565
v 0.035565 -0.277554 0.025839
v 0.041809 -0.277554 0.013584
v 0.043960 -0.277554 0.000000
v 0.082588 -0.267260 -0.026834
v 0.070253 -0.267260 -0.051042
v 0.051042 -0.267260 -0.070253
v 0.026834 -0.267260 -0.082588
v 0.000000 -0.267260 -0.086838
v -0.026834 -0.267260 -0.082588
v -0.051042 -0.267260 -0.070253
v -0.070253 -0.267260 -0.051042
v -0.082588 -0.267260 -0.026834
v -0.086838 -0.267260 0.000000
v -0.082588 -0.267260 0.026834
v -0.070253 -0.267260 0.051042
v -0.051042 -0.267260 0.070253
v -0.026834 -0.267260 0.082588
v -0.000000 -0.267260 0.086838
v 0.026834 -0.267260 0.082588
v 0.051042 -0.267260 0.070253
v 0.070253 -0.267260 0.051042
v 0.082588 -0.267260 0.026834
v 0.086838 -0.267260 0.000000
v 0.121333 -0.250385 -0.039424
v 0.103212 -0.250385 -0.074988
v 0.074988 -0.250385 -0.103212
v 0.039424 -0.250385 -0.121333
v 0.000000 -0.250385 -0.127578
v -0.039424 -0.250385 -0.121333
v -0.074988 -0.250385 -0.103212
v -0.103212 -0.250385 -0.074988
v -0.121333 -0.250385 -0.039424
v -0.127577 -0.250385 0.000000
v -0.121333 -0.250385 0.039424
v -0.103212 -0.250385 0.074988
v -0.074988 -0.250385 0.103212
v -0.039424 -0.250385 0.121333
v -0.000000 -0.250385 0.127577
v 0.039424 -0.250385 0.121333
v 0.074988 -0.250385 0.103212
v 0.103212 -0.250385 0.074988
v 0.121333 -0.250385 0.039424
v 0.127577 -0.250385 0.000000
v 0.157091 -0.227345 -0.051042
v 0.133630 -0.227345 -0.097088
v 0.097088 -0.227345 -0.133630
v 0.051042 -0.227345 -0.157091
v 0.000000 -0.227345 -0.165176
v -0.051042 -0.227345 -0.157091
v -0.097088 -0.227345 -0.133630
v -0.133630 -0.227345 -0.097088
v -0.157091 -0.227345 -0.051042
v -0.165176 -0.227345 0.000000
v -0.157091 -0.227345 0.051042
v -0.133630 -0.227345 0.097088
v -0.097088 -0.227345 0.133630
v -0.051042 -0.227345 0.157091
v -0.000000 -0.227345 0.165176
v 0.051042 -0.227345 0.157091
v 0.097088 -0.227345 0.133630
v 0.133630 -0.227345 0.097088
v 0.157091 -0.227345 0.051042
v 0.165176 -0.227345 0.000000
v 0.188981 -0.198707 -0.061404
v 0.160757 -0.198707 -0.116797
v 0.116797 -0.198707 -0.160757
v 0.061404 -0.198707 -0.188981
v 0.000000 -0.198707 -0.198707
v -0.061404 -0.198707 -0.188981
v -0.116797 -0.198707 -0.160757
v -0.160757 -0.198707 -0.116797
v -0.188981 -0.198707 -0.061404
v -0.198707 -0.198707 0.000000
v -0.188981 -0.198707 0.061404
v -0.160757 -0.198707 0.116797
v -0.116797 -0.198707 0.160757
v -0.061404 -0.198707 0.188981
v -0.000000 -0.198707 0.198707
v 0.061404 -0.198707 0.188981
v 0.116797 -0.198707 0.160757
v 0.160757 -0.198707 0.116797
v 0.188981 -0.198707 0.061404
v 0.198707 -0.198707 0.000000
v 0.216218 -0.165176 -0.070253
v 0.183926 -0.165176 -0.133630
v 0.133630 -0.165176 -0.183926
v 0.070253 -0.165176 -0.216218
v 0.000000 -0.165176 -0.227345
v -0.070253 -0.165176 -0.216218
v -0.133630 -0.165176 -0.183926
v -0.183926 -0.165176 -0.133630
v -0.216218 -0.165176 -0.070253
v -0.227345 -0.165176 0.000000
v -0.216218 -0.165176 0.070253
v -0.183926 -0.165176 0.133630
v -0.133630 -0.165176 0.183926
v -0.070253 -0.165176 0.216218
v -0.000000 -0.165176 0.227345
v 0.070253 -0.165176 0.216218
v 0.133630 -0.165176 0.183926
v 0.183926 -0.165176 0.133630
v 0.216218 -0.165176 0.070253
v 0.227345 -0.165176 0.000000
v 0.238130 -0.127577 -0.077373
v 0.202566 -0.127577 -0.147173
v 0.147173 -0.127577 -0.202566
v 0.077373 -0.127577 -0.238130
v 0.000000 -0.127577 -0.250385
v -0.077373 -0.127577 -0.238130
v -0.147173 -0.127577 -0.202566
v -0.202566 -0.127577 -0.147173
v -0.238130 -0.127577 -0.077373
v -0.250385 -0.127577 0.000000
v -0.238130 -0.127577 0.077373
v -0.202566 -0.127577 0.147173
v -0.147173 -0.127577 0.202566
v -0.077373 -0.127577 0.238130
v -0.000000 -0.127577 0.250385
v 0.077373 -0.127577 0.238130
v 0.147173 -0.127577 0.202566
v 0.202566 -0.127577 0.147173
v 0.238130 -0.127577 0.077373
v 0.250385 -0.127577 0.000000
v 0.254179 -0.086838 -0.082588
v 0.216218 -0.086838 -0.157091
v 0.157091 -0.086838 -0.216218
v 0.082588 -0.086838 -0.254179
v 0.000000 -0.086838 -0.267260
v -0.082588 -0.086838 -0.254179
v -0.157091 -0.086838 -0.216218
v -0.216218 -0.086838 -0.157091
v -0.254179 -0.086838 -0.082588
v -0.267260 -0.086838 0.000000
v -0.254179 -0.086838 0.082588
v -0.216218 -0.086838 0.157091
v -0.157091 -0.086838 0.216218
v -0.082588 -0.086838 0.254179
v -0.000000 -0.086838 0.267260
v 0.082588 -0.086838 0.254179
v 0.157091 -0.086838 0.216218
v 0.216218 -0.086838 0.157091
v 0.254179 -0.086838 0.082588
v 0.267260 -0.086838 0.000000
v 0.263969 -0.043960 -0.085769
v 0.224546 -0.043960 -0.163142
v 0.163142 -0.043960 -0.224546
v 0.085769 -0.043960 -0.263969
v 0.000000 -0.043960 -0.277554
v -0.085769 -0.043960 -0.263969
v -0.163142 -0.043960 -0.224546
v -0.224546 -0.043960 -0.163142
v -0.263969 -0.043960 -0.085769
v -0.277554 -0.043960 0.000000
v -0.263969 -0.043960 0.085769
v -0.224546 -0.043960 0.163142
v -0.163142 -0.043960 0.224546
v -0.085769 -0.043960 0.263969
v -0.000000 -0.043960 0.277554
v 0.085769 -0.043960 0.263969
v 0.163142 -0.043960 0.224546
v 0.224546 -0.043960 0.163142
v 0.263969 -0.043960 0.085769
v 0.277554 -0.043960 0.000000
v 0.267260 0.000000 -0.086838
v 0.227345 0.000000 -0.165176
v 0.165176 0.000000 -0.227345
v 0.086838 0.000000 -0.267260
v 0.000000 0.000000 -0.281014
v -0.086838 0.000000 -0.267260
v -0.165176 0.000000 -0.227345
v -0.227345 0.000000 -0.165176
v -0.267260 0.000000 -0.086838
v -0.281014 0.000000 0.000000
v -0.267260 0.000000 0.086838
v -0.227345 0.000000 0.165176
v -0.165176 0.000000 0.227345
v -0.086838 0.000000 0.267260
v -0.000000 0.000000 0.281014
v 0.086838 0.000000 0.267260
v 0.165176 0.000000 0.227345
v 0.227345 0.000000 0.165176
v 0.267260 0.000000 0.086838
v 0.281013 0.000000 0.000000
v 0.263969 0.043960 -0.085769
v 0.224546 0.043960 -0.163142
v 0.163142 0.043960 -0.224546
v 0.085769 0.043960 -0.263969
v 0.000000 0.043960 -0.277554
v -0.085769 0.043960 -0.263969
v -0.163142 0.043960 -0.224546
v -0.224546 0.043960 -0.163142
v -0.263969 0.043960 -0.085769
v -0.277554 0.043960 0.000000
v -0.263969 0.043960 0.085769
v -0.224546 0.043960 0.163142
v -0.163142 0.043960 0.224546
v -0.085769 0.043960 0.263969
v -0.000000 0.043960 0.277554
v 0.085769 0.043960 0.263969
v 0.163142 0.043960 0.224546
v 0.224546 0.043960 0.163142
v 0.263969 0.043960 0.085769
v 0.277554 0.043960 0.000000
v 0.254179 0.086838 -0.082588
v 0.216218 0.086838 -0.157091
v 0.157091 0.086838 -0.216218
v 0.082588 0.086838 -0.254179
v 0.000000 0.086838 -0.267260
v -0.082588 0.086838 -0.254179
v -0.157091 0.086838 -0.216218
v -0.216218 0.086838 -0.157091
v -0.254179 0.086838 -0.082588
v -0.267260 0.086838 0.000000
v -0.254179 0.086838 0.082588
v -0.216218 0.086838 0.157091
v -0.157091 0.086838 0.216218
v -0.082588 0.086838 0.254179
v -0.000000 0.086838 0.267260
v 0.082588 0.086838 0.254179
v 0.157091 0.086838 0.216218
v 0.216218 0.086838 0.157091
v 0.254179 0.086838 0.082588
v 0.267260 0.086838 0.000000
v 0.238130 0.127577 -0.077373
v 0.202566 0.127577 -0.147173
v 0.147173 0.127577 -0.202566
v 0.077373 0.127577 -0.238130
v 0.000000 0.127577 -0.250385
v -0.077373 0.127577 -0.238130
v -0.147173 0.127577 -0.202566
v -0.202566 0.127577 -0.147173
v -0.238130 0.127577 -0.077373
v -0.250385 0.127577 0.000000
v -0.238130 0.127577 0.077373
v -0.202566 0.127577 0.147173
v -0.147173 0.127577 0.202566
v -0.077373 0.127577 0.238130
v -0.000000 0.127577 0.250385
v 0.077373 0.127577 0.238130
v 0.147173 0.127577 0.202566
v 0.202566 0.127577 0.147173
v 0.238130 0.127577 0.077373
v 0.250385 0.127577 0.000000
v 0.216218 0.165176 -0.070253
v 0.183926 0.165176 -0.133630
v 0.133630 0.165176 -0.183926
v 0.070253 0.165176 -0.216218
v 0.000000 0.165176 -0.227345
v -0.070253 0.165176 -0.216218
v -0.133630 0.165176 -0.183926
v -0.183926 0.165176 -0.133630
v -0.216218 0.165176 -0.070253
v -0.227345 0.165176 0.000000
v -0.216218 0.165176 0.070253
v -0.183926 0.165176 0.133630
v -0.133630 0.165176 0.183926
v -0.070253 0.165176 0.216218
v -0.000000 0.165176 0.227345
v 0.070253 0.165176 0.216218
v 0.133630 0.165176 0.183926
v 0.183926 0.165176 0.133630
v 0.216218 0.165176 0.070253
v 0.227345 0.165176 0.000000
v 0.188981 0.198707 -0.061404
v 0.160757 0.198707 -0.116797
v 0.116797 0.198707 -0.160757
v 0.061404 0.198707 -0.188981
v 0.000000 0.198707 -0.198707
v -0.061404 0.198707 -0.188981
v -0.116797 0.198707 -0.160757
v -0.160757 0.198707 -0.116797
v -0.188981 0.198707 -0.061404
v -0.198707 0.198707 0.000000
v -0.188981 0.198707 0.061404
v -0.160757 0.198707 0.116797
v -0.116797 0.198707 0.160757
v -0.061404 0.198707 0.188981
v -0.000000 0.198707 0.198707
v 0.061404 0.198707 0.188981
v 0.116797 0.198707 0.160757
v 0.160757 0.198707 0.116797
v 0.188981 0.198707 0.061404
v 0.198707 0.198707 0.000000
v 0.157091 0.227345 -0.051042
v 0.133630 0.227345 -0.097088
v 0.097088 0.227345 -0.133630
v 0.051042 0.227345 -0.157091
v 0.000000 0.227345 -0.165176
v -0.051042 0.227345 -0.157091
v -0.097088 0.227345 -0.133630
v -0.133630 0.227345 -0.097088
v -0.157091 0.227345 -0.051042
v -0.165176 0.227345 0.000000
v -0.157091 0.227345 0.051042
v -0.133630 0.227345 0.097088
v -0.097088 0.227345 0.133630
v -0.051042 0.227345 0.157091
v -0.000000 0.227345 0.165176
v 0.051042 0.227345 0.157091
v 0.097088 0.227345 0.133630
v 0.133630 0.227345 0.097088
v 0.157091 0.227345 0.051042
v 0.165176 0.227345 0.000000
v 0.121333 0.250385 -0.039424
v 0.103212 0.250385 -0.074988
v 0.074988 0.250385 -0.103212
v 0.039424 0.250385 -0.121333
v 0.000000 0.250385 -0.127578
v -0.039424 0.250385 -0.121333
v -0.074988 0.250385 -0.103212
v -0.103212 0.250385 -0.074988
v -0.121333 0.250385 -0.039424
v -0.127577 0.250385 0.000000
v -0.121333 0.250385 0.039424
v -0.103212 0.250385 0.074988
v -0.074988 0.250385 0.103212
v -0.039424 0.250385 0.121333
v -0.000000 0.250385 0.127577
v 0.039424 0.250385 0.121333
v 0.074988 0.250385 0.103212
v 0.103212 0.250385 0.074988
v 0.121333 0.250385 0.039424
v 0.127577 0.250385 0.000000
v 0.082588 0.267260 -0.026834
v 0.070253 0.267260 -0.051042
v 0.051042 0.267260 -0.070253
v 0.026834 0.267260 -0.082588
v 0.000000 0.267260 -0.086838
v -0.026834 0.267260 -0.082588
v -0.051042 0.267260 -0.070253
v -0.070253 0.267260 -0.051042
v -0.082588 0.267260 -0.026834
v -0.086838 0.267260 0.000000
v -0.082588 0.267260 0.026834
v -0.070253 0.267260 0.051042
v -0.051042 0.267260 0.070253
v -0.026834 0.267260 0.082588
v -0.000000 0.267260 0.086838
v 0.026834 0.267260 0.082588
v 0.051042 0.267260 0.070253
v 0.070253 0.267260 0.051042
v 0.082588 0.267260 0.026834
v 0.086838 0.267260 0.000000
v 0.041809 0.277554 -0.013584
v 0.035565 0.277554 -0.025839
v 0.025839 0.277554 -0.035565
v 0.013584 0.277554 -0.041809
v 0.000000 0.277554 -0.043960
v -0.013584 0.277554 -0.041809
v -0.025839 0.277554 -0.035565
v -0.035565 0.277554 -0.025839
v -0.041809 0.277554 -0.013584
v -0.043960 0.277554 0.000000
v -0.041809 0.277554 0.013584
v -0.035565 0.277554 0.025839
v -0.025839 0.277554 0.035565
v -0.013584 0.277554 0.041809
v -0.000000 0.277554 0.043960
v 0.013584 0.277554 0.041809
v 0.025839 0.277554 0.035565
v 0.035565 0.277554 0.025839
v 0.041809 0.277554 0.013584
v 0.043960 0.277554 0.000000
v 0.000000 -0.281013 0.000000
v 0.000000 0.281013 0.000000
vt 0.000000 0.050000
vt 0.050000 0.050000
vt 0.100000 0.050000
vt 0.150000 0.050000
vt 0.200000 0.050000
vt 0.250000 0.050000
vt 0.300000 0.050000
vt 0.350000 0.050000
vt 0.400000 0.050000
vt 0.450000 0.050000
vt 0.500000 0.050000
vt 0.550000 0.050000
vt 0.600000 0.050000
vt 0.650000 0.050000
vt 0.700000 0.050000
vt 0.750000 0.050000
vt 0.800000 0.050000
vt 0.850000 0.050000
vt 0.900000 0.050000
vt 0.950000 0.050000
vt 1.000000 0.050000
vt 0.000000 0.100000
vt 0.050000 0.100000
vt 0.100000 0.100000
vt 0.150000 0.100000
vt 0.200000 0.100000
vt 0.250000 0.100000
vt 0.300000 0.100000
vt 0.350000 0.100000
vt 0.400000 0.100000
vt 0.450000 0.100000
vt 0.500000 0.100000
vt 0.550000 0.100000
vt 0.600000 0.100000
vt 0.650000 0.100000
vt 0.700000 0.100000
vt 0.750000 0.100000
vt 0.800000 0.100000
vt 0.850000 0.100000
vt 0.900000 0.100000
vt 0.950000 0.100000
vt 1.000000 0.100000
vt 0.000000 0.150000
vt 0.050000 0.150000
vt 0.100000 0.150000
vt 0.150000 0.150000
vt 0.200000 0.150000
vt 0.250000 0.150000
vt 0.300000 0.150000
vt 0.350000 0.150000
vt 0.400000 0.150000
vt 0.450000 0.150000
vt 0.500000 0.150000
vt 0.550000 0.150000
vt 0.600000 0.150000
vt 0.650000 0.150000
vt 0.700000 0.150000
vt 0.750000 0.150000
vt 0.800000 0.150000
vt 0.850000 0.150000
vt 0.900000 0.150000
vt 0.950000 0.150000
vt 1.000000 0.150000
vt 0.000000 0.200000
vt 0.050000 0.200000
vt 0.100000 0.200000
vt 0.150000 0.200000
vt 0.200000 0.200000
vt 0.250000 0.200000
vt 0.300000 0.200000
vt 0.350000 0.200000
vt 0.400000 0.200000
vt 0.450000 0.200000
vt 0.500000 0.200000
vt 0.550000 0.200000
vt 0.600000 0.200000
vt 0.650000 0.200000
vt 0.700000 0.200000
vt 0.750000 0.200000
vt 0.800000 0.200000
vt 0.850000 0.200000
vt 0.900000 0.200000
vt 0.950000 0.200000
vt 1.000000 0.200000
vt 0.000000 0.250000
vt 0.050000 0.250000
vt 0.100000 0.250000
vt 0.150000 0.250000
vt 0.200000 0.250000
vt 0.250000 0.250000
vt 0.300000 0.250000
vt 0.350000 0.250000
vt 0.400000 0.250000
vt 0.450000 0.250000
vt 0.500000 0.250000
vt 0.550000 0.250000
vt 0.600000 0.250000
vt 0.650000 0.250000
vt 0.700000 0.250000
vt 0.750000 0.250000
vt 0.800000 0.250000
vt 0.850000 0.250000
vt 0.900000 0.250000
vt 0.950000 0.250000
vt 1.000000 0.250000
vt 0.000000 0.300000
vt 0.050000 0.300000
vt 0.100000 0.300000
vt 0.150000 0.300000
vt 0.200000 0.300000
vt 0.250000 0.300000
vt 0.300000 0.300000
vt 0.350000 0.300000
vt 0.400000 0.300000
vt 0.450000 0.300000
vt 0.500000 0.300000
vt 0.550000 0.300000
vt 0.600000 0.300000
vt 0.650000 0.300000
vt 0.700000 0.300000
vt 0.750000 0.300000
vt 0.800000 0.300000
vt 0.850000 0.300000
vt 0.900000 0.300000
vt 0.950000 0.300000
vt 1.000000 0.300000
vt 0.000000 0.350000
vt 0.050000 0.350000
vt 0.100000 0.350000
vt 0.150000 0.350000
vt 0.200000 0.350000
vt 0.250000 0.350000
vt 0.300000 0.350000
vt 0.350000 0.350000
vt 0.400000 0.350000
vt 0.450000 0.350000
vt 0.500000 0.350000
vt 0.550000 0.350000
vt 0.600000 0.350000
vt 0.650000 0.350000
vt 0.700000 0.350000
vt 0.750000 0.350000
vt 0.800000 0.350000
vt 0.850000 0.350000
vt 0.900000 0.350000
vt 0.950000 0.350000
vt 1.000000 0.350000
vt 0.000000 0.400000
vt 0.050000 0.400000
vt 0.100000 0.400000
vt 0.150000 0.400000
vt 0.200000 0.400000
vt 0.250000 0.400000
vt 0.300000 0.400000
vt 0.350000 0.400000
vt 0.400000 0.400000
vt 0.450000 0.400000
vt 0.500000 0.400000
vt 0.550000 0.400000
vt 0.600000 0.400000
vt 0.650000 0.400000
vt 0.700000 0.400000
vt 0.750000 0.400000
vt 0.800000 0.400000
vt 0.850000 0.400000
vt 0.900000 0.400000
vt 0.950000 0.400000
vt 1.000000 0.400000
vt 0.000000 0.450000
vt 0.050000 0.450000
vt 0.100000 0.450000
vt 0.150000 0.450000
vt 0.200000 0.450000
vt 0.250000 0.450000
vt 0.300000 0.450000
vt 0.350000 0.450000
vt 0.400000 0.450000
vt 0.450000 0.450000
vt 0.500000 0.450000
vt 0.550000 0.450000
vt 0.600000 0.450000
vt 0.650000 0.450000
vt 0.700000 0.450000
vt 0.750000 0.450000
vt 0.800000 0.450000
vt 0.850000 0.450000
vt 0.900000 0.450000
vt 0.950000 0.450000
vt 1.000000 0.450000
vt 0.000000 0.500000
vt 0.050000 0.500000
vt 0.100000 0.500000
vt 0.150000 0.500000
vt 0.200000 0.500000
vt 0.250000 0.500000
vt 0.300000 0.500000
vt 0.350000 0.500000
vt 0.400000 0.500000
vt 0.450000 0.500000
vt 0.500000 0.500000
vt 0.550000 0.500000
vt 0.600000 0.500000
vt 0.650000 0.500000
vt 0.700000 0.500000
vt 0.750000 0.500000
vt 0.800000 0.500000
vt 0.850000 0.500000
vt 0.900000 0.500000
vt 0.950000 0.500000
vt 1.000000 0.500000
vt 0.000000 0.550000
vt 0.050000 0.550000
vt 0.100000 0.550000
vt 0.150000 0.550000
vt 0.200000 0.550000
vt 0.250000 0.550000
vt 0.300000 0.550000
vt 0.350000 0.550000
vt 0.400000 0.550000
vt 0.450000 0.550000
vt 0.500000 0.550000
vt 0.550000 0.550000
vt 0.600000 0.550000
vt 0.650000 0.550000
vt 0.700000 0.550000
vt 0.750000 0.550000
vt 0.800000 0.550000
vt 0.850000 0.550000
vt 0.900000 0.550000
vt 0.950000 0.550000
vt 1.000000 0.550000
vt 0.000000 0.600000
vt 0.050000 0.600000
vt 0.100000 0.600000
vt 0.150000 0.600000
vt 0.200000 0.600000
vt 0.250000 0.600000
vt 0.300000 0.600000
vt 0.350000 0.600000
vt 0.400000 0.600000
vt 0.450000 0.600000
vt 0.500000 0.600000
vt 0.550000 0.600000
vt 0.600000 0.600000
vt 0.650000 0.600000
vt 0.700000 0.600000
vt 0.750000 0.600000
vt 0.800000 0.600000
vt 0.850000 0.600000
vt 0.900000 0.600000
vt 0.950000 0.600000
vt 1.000000 0.600000
vt 0.000000 0.650000
vt 0.050000 0.650000
vt 0.100000 0.650000
vt 0.150000 0.650000
vt 0.200000 0.650000
vt 0.250000 0.650000
vt 0.300000 0.650000
vt 0.350000 0.650000
vt 0.400000 0.650000
vt 0.450000 0.650000
vt 0.500000 0.650000
vt 0.550000 0.650000
vt 0.600000 0.650000
vt 0.650000 0.650000
vt 0.700000 0.650000
vt 0.750000 0.650000
vt 0.800000 0.650000
vt 0.850000 0.650000
vt 0.900000 0.650000
vt 0.950000 0.650000
vt 1.000000 0.650000
vt 0.000000 0.700000
vt 0.050000 0.700000
vt 0.100000 0.700000
vt 0.150000 0.700000
vt 0.200000 0.700000
vt 0.250000 0.700000
vt 0.300000 0.700000
vt 0.350000 0.700000
vt 0.400000 0.700000
vt 0.450000 0.700000
vt 0.500000 0.700000
vt 0.550000 0.700000
vt 0.600000 0.700000
vt 0.650000 0.700000
vt 0.700000 0.700000
vt 0.750000 0.700000
vt 0.800000 0.700000
vt 0.850000 0.700000
vt 0.900000 0.700000
vt 0.950000 0.700000
vt 1.000000 0.700000
vt 0.000000 0.750000
vt 0.050000 0.750000
vt 0.100000 0.750000
vt 0.150000 0.750000
vt 0.200000 0.750000
vt 0.250000 0.750000
vt 0.300000 0.750000
vt 0.350000 0.750000
vt 0.400000 0.750000
vt 0.450000 0.750000
vt 0.500000 0.750000
vt 0.550000 0.750000
vt 0.600000 0.750000
vt 0.650000 0.750000
vt 0.700000 0.750000
vt 0.750000 0.750000
vt 0.800000 0.750000
vt 0.850000 0.750000
vt 0.900000 0.750000
vt 0.950000 0.750000
vt 1.000000 0.750000
vt 0.000000 0.800000
vt 0.050000 0.800000
vt 0.100000 0.800000
vt 0.150000 0.800000
vt 0.200000 0.800000
vt 0.250000 0.800000
vt 0.300000 0.800000
vt 0.350000 0.800000
vt 0.400000 0.800000
vt 0.450000 0.800000
vt 0.500000 0.800000
vt 0.550000 0.800000
vt 0.600000 0.800000
vt 0.650000 0.800000
vt 0.700000 0.800000
vt 0.750000 0.800000
vt 0.800000 0.800000
vt 0.850000 0.800000
vt 0.900000 0.800000
vt 0.950000 0.800000
vt 1.000000 0.800000
vt 0.000000 0.850000
vt 0.050000 0.850000
vt 0.100000 0.850000
vt 0.150000 0.850000
vt 0.200000 0.850000
vt 0.250000 0.850000
vt 0.300000 0.850000
vt 0.350000 0.850000
vt 0.400000 0.850000
vt 0.450000 0.850000
vt 0.500000 0.850000
vt 0.550000 0.850000
vt 0.600000 0.850000
vt 0.650000 0.850000
vt 0.700000 0.850000
vt 0.750000 0.850000
vt 0.800000 0.850000
vt 0.850000 0.850000
vt 0.900000 0.850000
vt 0.950000 0.850000
vt 1.000000 0.850000
vt 0.000000 0.900000
vt 0.050000 0.900000
vt 0.100000 0.900000
vt 0.150000 0.900000
vt 0.200000 0.900000
vt 0.250000 0.900000
vt 0.300000 0.900000
vt 0.350000 0.900000
vt 0.400000 0.900000
vt 0.450000 0.900000
vt 0.500000 0.900000
vt 0.550000 0.900000
vt 0.600000 0.900000
vt 0.650000 0.900000
vt 0.700000 0.900000
vt 0.750000 0.900000
vt 0.800000 0.900000
vt 0.850000 0.900000
vt 0.900000 0.900000
vt 0.950000 0.900000
vt 1.000000 0.900000
vt 0.000000 0.950000
vt 0.050000 0.950000
vt 0.100000 0.950000
vt 0.150000 0.950000
vt 0.200000 0.950000
vt 0.250000 0.950000
vt 0.300000 0.950000
vt 0.350000 0.950000
vt 0.400000 0.950000
vt 0.450000 0.950000
vt 0.500000 0.950000
vt 0.550000 0.950000
vt 0.600000 0.950000
vt 0.650000 0.950000
vt 0.700000 0.950000
vt 0.750000 0.950000
vt 0.800000 0.950000
vt 0.850000 0.950000
vt 0.900000 0.950000
vt 0.950000 0.950000
vt 1.000000 0.950000
vt 0.025000 0.000000
vt 0.075000 0.000000
vt 0.125000 0.000000
vt 0.175000 0.000000
vt 0.225000 0.000000
vt 0.275000 0.000000
vt 0.325000 0.000000
vt 0.375000 0.000000
vt 0.425000 0.000000
vt 0.475000 0.000000
vt 0.525000 0.000000
vt 0.575000 0.000000
vt 0.625000 0.000000
vt 0.675000 0.000000
vt 0.725000 0.000000
vt 0.775000 0.000000
vt 0.825000 0.000000
vt 0.875000 0.000000
vt 0.925000 0.000000
vt 0.975000 0.000000
vt 0.025000 1.000000
vt 0.075000 1.000000
vt 0.125000 1.000000
vt 0.175000 1.000000
vt 0.225000 1.000000
vt 0.275000 1.000000
vt 0.325000 1.000000
vt 0.375000 1.000000
vt 0.425000 1.000000
vt 0.475000 1.000000
vt 0.525000 1.000000
vt 0.575000 1.000000
vt 0.625000 1.000000
vt 0.675000 1.000000
vt 0.725000 1.000000
vt 0.775000 1.000000
vt 0.825000 1.000000
vt 0.875000 1.000000
vt 0.925000 1.000000
vt 0.975000 1.000000
vn 0.162626 -0.985442 -0.049557
vn 0.139353 -0.985442 -0.097386
vn 0.307374 -0.946801 -0.095332
vn 0.262871 -0.946801 -0.185651
vn 0.102439 -0.985443 -0.135681
vn 0.192635 -0.946801 -0.257796
vn 0.055497 -0.985443 -0.160696
vn 0.103544 -0.946801 -0.304706
vn 0.003123 -0.985442 -0.169981
vn 0.004317 -0.946801 -0.321789
vn -0.049557 -0.985442 -0.162626
vn -0.095333 -0.946801 -0.307374
vn -0.097386 -0.985442 -0.139353
vn -0.185651 -0.946801 -0.262871
vn -0.135682 -0.985443 -0.102439
vn -0.257796 -0.946801 -0.192635
vn -0.160696 -0.985443 -0.055497
vn -0.304706 -0.946801 -0.103544
vn -0.169981 -0.985442 -0.003123
vn -0.321790 -0.946801 -0.004318
vn -0.162626 -0.985443 0.049556
vn -0.307374 -0.946801 0.095333
vn -0.139353 -0.985443 0.097384
vn -0.262871 -0.946801 0.185651
vn -0.102439 -0.985443 0.135680
vn -0.192636 -0.946801 0.257796
vn -0.055497 -0.985442 0.160696
vn -0.103544 -0.946801 0.304707
vn -0.003123 -0.985443 0.169981
vn -0.004317 -0.946801 0.321789
vn 0.049557 -0.985442 0.162627
vn 0.095333 -0.946801 0.307374
vn 0.097386 -0.985442 0.139354
vn 0.185651 -0.946801 0.262871
vn 0.135682 -0.985442 0.102439
vn 0.257796 -0.946801 0.192636
vn 0.160696 -0.985442 0.055497
vn 0.304706 -0.946801 0.103544
vn 0.169981 -0.985442 0.003123
vn 0.321790 -0.946801 0.004317
vn 0.443773 -0.885332 -0.138754
vn 0.379175 -0.885332 -0.269096
vn 0.277462 -0.885332 -0.373097
vn 0.148589 -0.885332 -0.440577
vn 0.005170 -0.885332 -0.464930
vn -0.138754 -0.885332 -0.443773
vn -0.269096 -0.885332 -0.379175
vn -0.373097 -0.885332 -0.277462
vn -0.440577 -0.885332 -0.148589
vn -0.464930 -0.885332 -0.005171
vn -0.443773 -0.885332 0.138754
vn -0.379176 -0.885332 0.269096
vn -0.277462 -0.885332 0.373097
vn -0.148589 -0.885332 0.440577
vn -0.005170 -0.885332 0.464930
vn 0.138754 -0.885332 0.443773
vn 0.269096 -0.885332 0.379176
vn 0.373097 -0.885332 0.277462
vn 0.440577 -0.885332 0.148589
vn 0.464930 -0.885332 0.005171
vn 0.569006 -0.802583 -0.179146
vn 0.485797 -0.802583 -0.346211
vn 0.355036 -0.802583 -0.479386
vn 0.189521 -0.802583 -0.565635
vn 0.005454 -0.802583 -0.596516
vn -0.179147 -0.802583 -0.569006
vn -0.346211 -0.802583 -0.485797
vn -0.479386 -0.802583 -0.355036
vn -0.565635 -0.802583 -0.189521
vn -0.596516 -0.802583 -0.005454
vn -0.569006 -0.802583 0.179146
vn -0.485797 -0.802583 0.346211
vn -0.355036 -0.802583 0.479386
vn -0.189521 -0.802583 0.565635
vn -0.005454 -0.802583 0.596516
vn 0.179146 -0.802583 0.569006
vn 0.346211 -0.802582 0.485798
vn 0.479386 -0.802583 0.355036
vn 0.565635 -0.802583 0.189521
vn 0.596516 -0.802583 0.005455
vn 0.680269 -0.700559 -0.215525
vn 0.580373 -0.700559 -0.415192
vn 0.423666 -0.700559 -0.574216
vn 0.225488 -0.700559 -0.677032
vn 0.005237 -0.700559 -0.713576
vn -0.215526 -0.700559 -0.680269
vn -0.415192 -0.700559 -0.580373
vn -0.574217 -0.700559 -0.423666
vn -0.677032 -0.700559 -0.225488
vn -0.713576 -0.700559 -0.005237
vn -0.680269 -0.700559 0.215526
vn -0.580373 -0.700559 0.415192
vn -0.423666 -0.700559 0.574217
vn -0.225488 -0.700559 0.677032
vn -0.005237 -0.700559 0.713576
vn 0.215526 -0.700559 0.680269
vn 0.415192 -0.700559 0.580373
vn 0.574217 -0.700559 0.423666
vn 0.677032 -0.700559 0.225488
vn 0.713576 -0.700558 0.005238
vn 0.774995 -0.581722 -0.246947
vn 0.660752 -0.581722 -0.474348
vn 0.481831 -0.581722 -0.655315
vn 0.255745 -0.581722 -0.772136
vn 0.004625 -0.581722 -0.813375
vn -0.246948 -0.581722 -0.774994
vn -0.474348 -0.581722 -0.660753
vn -0.655315 -0.581722 -0.481831
vn -0.772136 -0.581722 -0.255745
vn -0.813375 -0.581722 -0.004625
vn -0.774994 -0.581722 0.246948
vn -0.660753 -0.581722 0.474348
vn -0.481831 -0.581722 0.655315
vn -0.255745 -0.581722 0.772136
vn -0.004625 -0.581722 0.813375
vn 0.246948 -0.581722 0.774994
vn 0.474348 -0.581722 0.660753
vn 0.655315 -0.581722 0.481832
vn 0.772136 -0.581722 0.255745
vn 0.813375 -0.581722 0.004626
vn 0.850970 -0.448937 -0.272589
vn 0.725086 -0.448937 -0.522213
vn 0.528225 -0.448937 -0.720718
vn 0.279658 -0.448937 -0.848674
vn 0.003715 -0.448937 -0.893556
vn -0.272590 -0.448937 -0.850970
vn -0.522213 -0.448937 -0.725086
vn -0.720718 -0.448937 -0.528225
vn -0.848674 -0.448937 -0.279658
vn -0.893556 -0.448937 -0.003716
vn -0.850970 -0.448937 0.272590
vn -0.725086 -0.448937 0.522213
vn -0.528225 -0.448937 0.720718
vn -0.279658 -0.448937 0.848674
vn -0.003716 -0.448937 0.893556
vn 0.272590 -0.448937 0.850970
vn 0.522213 -0.448937 0.725086
vn 0.720718 -0.448937 0.528225
vn 0.848674 -0.448937 0.279658
vn 0.893556 -0.448937 0.003716
vn 0.906418 -0.305397 -0.291786
vn 0.771887 -0.305397 -0.557605
vn 0.561799 -0.305397 -0.768840
vn 0.296718 -0.305397 -0.904816
vn 0.002592 -0.305397 -0.952222
vn -0.291788 -0.305397 -0.906418
vn -0.557605 -0.305397 -0.771887
vn -0.768840 -0.305397 -0.561799
vn -0.904815 -0.305397 -0.296718
vn -0.952222 -0.305397 -0.002592
vn -0.906417 -0.305397 0.291787
vn -0.771887 -0.305397 0.557605
vn -0.561799 -0.305397 0.768840
vn -0.296718 -0.305397 0.904816
vn -0.002592 -0.305397 0.952222
vn 0.291787 -0.305397 0.906417
vn 0.557605 -0.305397 0.771887
vn 0.768840 -0.305397 0.561799
vn 0.904815 -0.305397 0.296718
vn 0.952222 -0.305397 0.002593
vn 0.940040 -0.154547 -0.304038
vn 0.800078 -0.154547 -0.579647
vn 0.581799 -0.154547 -0.798515
vn 0.306569 -0.154547 -0.939218
vn 0.001330 -0.154547 -0.987985
vn -0.304039 -0.154547 -0.940040
vn -0.579647 -0.154547 -0.800078
vn -0.798514 -0.154547 -0.581799
vn -0.939218 -0.154547 -0.306569
vn -0.987985 -0.154547 -0.001330
vn -0.940040 -0.154547 0.304039
vn -0.800078 -0.154547 0.579647
vn -0.581799 -0.154547 0.798514
vn -0.306569 -0.154547 0.939218
vn -0.001330 -0.154547 0.987985
vn 0.304039 -0.154547 0.940040
vn 0.579647 -0.154547 0.800078
vn 0.798514 -0.154547 0.581799
vn 0.939218 -0.154547 0.306569
vn 0.987985 -0.154547 0.001331
vn 0.951057 -0.000000 -0.309016
vn 0.809017 0.000000 -0.587785
vn 0.587785 0.000000 -0.809017
vn 0.309017 -0.000000 -0.951057
vn -0.000000 0.000000 -1.000000
vn -0.309017 0.000000 -0.951057
vn -0.587785 -0.000000 -0.809017
vn -0.809017 -0.000000 -0.587785
vn -0.951057 0.000000 -0.309017
vn -1.000000 0.000000 0.000000
vn -0.951057 0.000000 0.309017
vn -0.809017 0.000000 0.587785
vn -0.587785 0.000000 0.809017
vn -0.309017 0.000000 0.951057
vn 0.000000 0.000000 1.000000
vn 0.309017 0.000000 0.951056
vn 0.587785 -0.000000 0.809017
vn 0.809017 0.000000 0.587785
vn 0.951057 -0.000000 0.309017
vn 1.000000 0.000000 0.000001
vn 0.939218 0.154547 -0.306568
vn 0.798514 0.154548 -0.581799
vn 0.579647 0.154547 -0.800078
vn 0.304039 0.154547 -0.940040
vn -0.001330 0.154547 -0.987985
vn -0.306569 0.154547 -0.939218
vn -0.581799 0.154547 -0.798514
vn -0.800078 0.154547 -0.579646
vn -0.940040 0.154547 -0.304039
vn -0.987985 0.154547 0.001330
vn -0.939218 0.154547 0.306569
vn -0.798514 0.154547 0.581799
vn -0.579646 0.154547 0.800078
vn -0.304039 0.154547 0.940040
vn 0.001330 0.154547 0.987984
vn 0.306569 0.154547 0.939218
vn 0.581799 0.154547 0.798514
vn 0.800078 0.154547 0.579647
vn 0.940040 0.154547 0.304039
vn 0.987985 0.154547 -0.001329
vn 0.904816 0.305397 -0.296717
vn 0.768840 0.305397 -0.561799
vn 0.557605 0.305397 -0.771887
vn 0.291787 0.305397 -0.906418
vn -0.002592 0.305397 -0.952222
vn -0.296718 0.305397 -0.904815
vn -0.561799 0.305397 -0.768840
vn -0.771887 0.305397 -0.557604
vn -0.906418 0.305397 -0.291787
vn -0.952222 0.305397 0.002592
vn -0.904816 0.305397 0.296718
vn -0.768840 0.305397 0.561799
vn -0.557605 0.305397 0.771887
vn -0.291787 0.305397 0.906418
vn 0.002592 0.305397 0.952222
vn 0.296718 0.305397 0.904815
vn 0.561799 0.305397 0.768840
vn 0.771887 0.305397 0.557605
vn 0.906418 0.305397 0.291787
vn 0.952222 0.305397 -0.002591
vn 0.848674 0.448937 -0.279657
vn 0.720718 0.448937 -0.528225
vn 0.522213 0.448937 -0.725086
vn 0.272590 0.448937 -0.850970
vn -0.003716 0.448937 -0.893556
vn -0.279658 0.448937 -0.848674
vn -0.528225 0.448937 -0.720718
vn -0.725086 0.448937 -0.522213
vn -0.850970 0.448937 -0.272590
vn -0.893556 0.448937 0.003716
vn -0.848674 0.448937 0.279658
vn -0.720718 0.448937 0.528225
vn -0.522213 0.448937 0.725086
vn -0.272590 0.448937 0.850970
vn 0.003716 0.448937 0.893556
vn 0.279658 0.448937 0.848674
vn 0.528225 0.448937 0.720718
vn 0.725086 0.448937 0.522213
vn 0.850970 0.448937 0.272590
vn 0.893556 0.448937 -0.003715
vn 0.772136 0.581722 -0.255745
vn 0.655315 0.581722 -0.481831
vn 0.474347 0.581722 -0.660753
vn 0.246948 0.581722 -0.774994
vn -0.004625 0.581722 -0.813375
vn -0.255746 0.581722 -0.772136
vn -0.481832 0.581722 -0.655315
vn -0.660753 0.581722 -0.474348
vn -0.774994 0.581722 -0.246948
vn -0.813375 0.581722 0.004625
vn -0.772136 0.581722 0.255745
vn -0.655315 0.581722 0.481832
vn -0.474347 0.581722 0.660753
vn -0.246948 0.581722 0.774995
vn 0.004625 0.581722 0.813375
vn 0.255746 0.581722 0.772136
vn 0.481831 0.581722 0.655315
vn 0.660752 0.581722 0.474348
vn 0.774994 0.581722 0.246948
vn 0.813375 0.581722 -0.004624
vn 0.677033 0.700559 -0.225487
vn 0.574216 0.700559 -0.423666
vn 0.415192 0.700559 -0.580373
vn 0.215526 0.700558 -0.680269
vn -0.005237 0.700559 -0.713576
vn -0.225488 0.700559 -0.677032
vn -0.423666 0.700559 -0.574216
vn -0.580373 0.700559 -0.415192
vn -0.680269 0.700559 -0.215526
vn -0.713576 0.700559 0.005237
vn -0.677032 0.700559 0.225488
vn -0.574217 0.700558 0.423666
vn -0.415192 0.700559 0.580373
vn -0.215526 0.700559 0.680269
vn 0.005237 0.700559 0.713576
vn 0.225488 0.700559 0.677032
vn 0.423666 0.700559 0.574216
vn 0.580373 0.700559 0.415192
vn 0.680269 0.700559 0.215526
vn 0.713576 0.700559 -0.005236
vn 0.565635 0.802583 -0.189520
vn 0.479385 0.802583 -0.355036
vn 0.346211 0.802583 -0.485798
vn 0.179146 0.802583 -0.569006
vn -0.005454 0.802583 -0.596516
vn -0.189521 0.802583 -0.565635
vn -0.355036 0.802583 -0.479386
vn -0.485798 0.802583 -0.346211
vn -0.569006 0.802583 -0.179146
vn -0.596516 0.802583 0.005454
vn -0.565635 0.802583 0.189521
vn -0.479386 0.802583 0.355036
vn -0.346211 0.802583 0.485798
vn -0.179146 0.802583 0.569006
vn 0.005454 0.802583 0.596516
vn 0.189521 0.802583 0.565635
vn 0.355036 0.802582 0.479386
vn 0.485798 0.802583 0.346211
vn 0.569006 0.802583 0.179146
vn 0.596516 0.802583 -0.005454
vn 0.440577 0.885332 -0.148588
vn 0.373097 0.885332 -0.277462
vn 0.269096 0.885332 -0.379176
vn 0.138754 0.885332 -0.443772
vn -0.005171 0.885332 -0.464930
vn -0.148589 0.885332 -0.440577
vn -0.277462 0.885332 -0.373097
vn -0.379176 0.885332 -0.269096
vn -0.443773 0.885332 -0.138754
vn -0.464930 0.885332 0.005170
vn -0.440577 0.885332 0.148588
vn -0.373097 0.885332 0.277462
vn -0.269096 0.885332 0.379176
vn -0.138754 0.885332 0.443773
vn 0.005171 0.885332 0.464930
vn 0.148589 0.885332 0.440577
vn 0.277462 0.885332 0.373097
vn 0.379176 0.885332 0.269096
vn 0.443773 0.885332 0.138754
vn 0.464930 0.885332 -0.005170
vn 0.304706 0.946801 -0.103544
vn 0.257796 0.946801 -0.192636
vn 0.185651 0.946801 -0.262871
vn 0.095333 0.946801 -0.307374
vn -0.004317 0.946801 -0.321789
vn -0.103544 0.946801 -0.304706
vn -0.192636 0.946801 -0.257796
vn -0.262871 0.946801 -0.185651
vn -0.307374 0.946801 -0.095333
vn -0.321790 0.946801 0.004317
vn -0.304706 0.946801 0.103544
vn -0.257796 0.946801 0.192636
vn -0.185651 0.946801 0.262871
vn -0.095333 0.946801 0.307374
vn 0.004317 0.946801 0.321789
vn 0.103544 0.946801 0.304706
vn 0.192636 0.946801 0.257796
vn 0.262871 0.946801 0.185651
vn 0.307374 0.946801 0.095333
vn 0.321790 0.946801 -0.004317
vn 0.160696 0.985442 -0.055497
vn 0.135682 0.985443 -0.102438
vn 0.097386 0.985443 -0.139352
vn 0.049557 0.985442 -0.162627
vn -0.003123 0.985442 -0.169981
vn -0.055497 0.985442 -0.160696
vn -0.102439 0.985443 -0.135680
vn -0.139353 0.985443 -0.097384
vn -0.162626 0.985442 -0.049557
vn -0.169981 0.985442 0.003123
vn -0.160696 0.985442 0.055497
vn -0.135682 0.985442 0.102439
vn -0.097386 0.985442 0.139353
vn -0.049557 0.985442 0.162627
vn 0.003123 0.985442 0.169981
vn 0.055497 0.985442 0.160696
vn 0.102439 0.985443 0.135680
vn 0.139353 0.985443 0.097385
vn 0.162626 0.985442 0.049557
vn 0.169981 0.985442 -0.003123
vn -0.000000 -1.000000 -0.000000
vn -0.000000 1.000000 0.000000
s 1
g pSphere1
usemtl initialShadingGroup
f 1/1/1 2/2/2 21/22/3
f 21/22/3 2/2/2 22/23/4
f 2/2/2 3/3/5 22/23/4
f 22/23/4 3/3/5 23/24/6
f 3/3/5 4/4/7 23/24/6
f 23/24/6 4/4/7 24/25/8
f 4/4/7 5/5/9 24/25/8
f 24/25/8 5/5/9 25/26/10
f 5/5/9 6/6/11 25/26/10
f 25/26/10 6/6/11 26/27/12
f 6/6/11 7/7/13 26/27/12
f 26/27/12 7/7/13 27/28/14
f 7/7/13 8/8/15 27/28/14
f 27/28/14 8/8/15 28/29/16
f 8/8/15 9/9/17 28/29/16
f 28/29/16 9/9/17 29/30/18
f 9/9/17 10/10/19 29/30/18
f 29/30/18 10/10/19 30/31/20
f 10/10/19 11/11/21 30/31/20
f 30/31/20 11/11/21 31/32/22
f 11/11/21 12/12/23 31/32/22
f 31/32/22 12/12/23 32/33/24
f 12/12/23 13/13/25 32/33/24
f 32/33/24 13/13/25 33/34/26
f 13/13/25 14/14/27 33/34/26
f 33/34/26 14/14/27 34/35/28
f 14/14/27 15/15/29 34/35/28
f 34/35/28 15/15/29 35/36/30
f 15/15/29 16/16/31 35/36/30
f 35/36/30 16/16/31 36/37/32
f 16/16/31 17/17/33 36/37/32
f 36/37/32 17/17/33 37/38/34
f 17/17/33 18/18/35 37/38/34
f 37/38/34 18/18/35 38/39/36
f 18/18/35 19/19/37 38/39/36
f 38/39/36 19/19/37 39/40/38
f 19/19/37 20/20/39 39/40/38
f 39/40/38 20/20/39 40/41/40
f 20/20/39 1/21/1 40/41/40
f 40/41/40 1/21/1 21/42/3
f 21/22/3 22/23/4 41/43/41
f 41/43/41 22/23/4 42/44/42
f 22/23/4 23/24/6 42/44/42
f 42/44/42 23/24/6 43/45/43
f 23/24/6 24/25/8 43/45/43
f 43/45/43 24/25/8 44/46/44
f 24/25/8 25/26/10 44/46/44
f 44/46/44 25/26/10 45/47/45
f 25/26/10 26/27/12 45/47/45
f 45/47/45 26/27/12 46/48/46
f 26/27/12 27/28/14 46/48/46
f 46/48/46 27/28/14 47/49/47
f 27/28/14 28/29/16 47/49/47
f 47/49/47 28/29/16 48/50/48
f 28/29/16 29/30/18 48/50/48
f 48/50/48 29/30/18 49/51/49
f 29/30/18 30/31/20 49/51/49
f 49/51/49 30/31/20 50/52/50
f 30/31/20 31/32/22 50/52/50
f 50/52/50 31/32/22 51/53/51
f 31/32/22 32/33/24 51/53/51
f 51/53/51 32/33/24 52/54/52
f 32/33/24 33/34/26 52/54/52
f 52/54/52 33/34/26 53/55/53
f 33/34/26 34/35/28 53/55/53
f 53/55/53 34/35/28 54/56/54
f 34/35/28 35/36/30 54/56/54
f 54/56/54 35/36/30 55/57/55
f 35/36/30 36/37/32 55/57/55
f 55/57/55 36/37/32 56/58/56
f 36/37/32 37/38/34 56/58/56
f 56/58/56 37/38/34 57/59/57
f 37/38/34 38/39/36 57/59/57
f 57/59/57 38/39/36 58/60/58
f 38/39/36 39/40/38 58/60/58
f 58/60/58 39/40/38 59/61/59
f 39/40/38 40/41/40 59/61/59
f 59/61/59 40/41/40 60/62/60
f 40/41/40 21/42/3 60/62/60
f 60/62/60 21/42/3 41/63/41
f 41/43/41 42/44/42 61/64/61
f 61/64/61 42/44/42 62/65/62
f 42/44/42 43/45/43 62/65/62
f 62/65/62 43/45/43 63/66/63
f 43/45/43 44/46/44 63/66/63
f 63/66/63 44/46/44 64/67/64
f 44/46/44 45/47/45 64/67/64
f 64/67/64 45/47/45 65/68/65
f 45/47/45 46/48/46 65/68/65
f 65/68/65 46/48/46 66/69/66
f 46/48/46 47/49/47 66/69/66
f 66/69/66 47/49/47 67/70/67
f 47/49/47 48/50/48 67/70/67
f 67/70/67 48/50/48 68/71/68
f 48/50/48 49/51/49 68/71/68
f 68/71/68 49/51/49 69/72/69
f 49/51/49 50/52/50 69/72/69
f 69/72/69 50/52/50 70/73/70
f 50/52/50 51/53/51 70/73/70
f 70/73/70 51/53/51 71/74/71
f 51/53/51 52/54/52 71/74/71
f 71/74/71 52/54/52 72/75/72
f 52/54/52 53/55/53 72/75/72
f 72/75/72 53/55/53 73/76/73
f 53/55/53 54/56/54 73/76/73
f 73/76/73 54/56/54 74/77/74
f 54/56/54 55/57/55 74/77/74
f 74/77/74 55/57/55 75/78/75
f 55/57/55 56/58/56 75/78/75
f 75/78/75 56/58/56 76/79/76
f 56/58/56 57/59/57 76/79/76
f 76/79/76 57/59/57 77/80/77
f 57/59/57 58/60/58 77/80/77
f 77/80/77 58/60/58 78/81/78
f 58/60/58 59/61/59 78/81/78
f 78/81/78 59/61/59 79/82/79
f 59/61/59 60/62/60 79/82/79
f 79/82/79 60/62/60 80/83/80
f 60/62/60 41/63/41 80/83/80
f 80/83/80 41/63/41 61/84/61
f 61/64/61 62/65/62 81/85/81
f 81/85/81 62/65/62 82/86/82
f 62/65/62 63/66/63 82/86/82
f 82/86/82 63/66/63 83/87/83
f 63/66/63 64/67/64 83/87/83
f 83/87/83 64/67/64 84/88/84
f 64/67/64 65/68/65 84/88/84
f 84/88/84 65/68/65 85/89/85
f 65/68/65 66/69/66 85/89/85
f 85/89/85 66/69/66 86/90/86
f 66/69/66 67/70/67 86/90/86
f 86/90/86 67/70/67 87/91/87
f 67/70/67 68/71/68 87/91/87
f 87/91/87 68/71/68 88/92/88
f 68/71/68 69/72/69 88/92/88
f 88/92/88 69/72/69 89/93/89
f 69/72/69 70/73/70 89/93/89
f 89/93/89 70/73/70 90/94/90
f 70/73/70 71/74/71 90/94/90
f 90/94/90 71/74/71 91/95/91
f 71/74/71 72/75/72 91/95/91
f 91/95/91 72/75/72 92/96/92
f 72/75/72 73/76/73 92/96/92
f 92/96/92 73/76/73 93/97/93
f 73/76/73 74/77/74 93/97/93
f 93/97/93 74/77/74 94/98/94
f 74/77/74 75/78/75 94/98/94
f 94/98/94 75/78/75 95/99/95
f 75/78/75 76/79/76 95/99/95
f 95/99/95 76/79/76 96/100/96
f 76/79/76 77/80/77 96/100/96
f 96/100/96 77/80/77 97/101/97
f 77/80/77 78/81/78 97/101/97
f 97/101/97 78/81/78 98/102/98
f 78/81/78 79/82/79 98/102/98
f 98/102/98 79/82/79 99/103/99
f 79/82/79 80/83/80 99/103/99
f 99/103/99 80/83/80 100/104/100
f 80/83/80 61/84/61 100/104/100
f 100/104/100 61/84/61 81/105/81
f 81/85/81 82/86/82 101/106/101
f 101/106/101 82/86/82 102/107/102
f 82/86/82 83/87/83 102/107/102
f 102/107/102 83/87/83 103/108/103
f 83/87/83 84/88/84 103/108/103
f 103/108/103 84/88/84 104/109/104
f 84/88/84 85/89/85 104/109/104
f 104/109/104 85/89/85 105/110/105
f 85/89/85 86/90/86 105/110/105
f 105/110/105 86/90/86 106/111/106
f 86/90/86 87/91/87 106/111/106
f 106/111/106 87/91/87 107/112/107
f 87/91/87 88/92/88 107/112/107
f 107/112/107 88/92/88 108/113/108
f 88/92/88 89/93/89 108/113/108
f 108/113/108 89/93/89 109/114/109
f 89/93/89 90/94/90 109/114/109
f 109/114/109 90/94/90 110/115/110
f 90/94/90 91/95/91 110/115/110
f 110/115/110 91/95/91 111/116/111
f 91/95/91 92/96/92 111/116/111
f 111/116/111 92/96/92 112/117/112
f 92/96/92 93/97/93 112/117/112
f 112/117/112 93/97/93 113/118/113
f 93/97/93 94/98/94 113/118/113
f 113/118/113 94/98/94 114/119/114
f 94/98/94 95/99/95 114/119/114
f 114/119/114 95/99/95 115/120/115
f 95/99/95 96/100/96 115/120/115
f 115/120/115 96/100/96 116/121/116
f 96/100/96 97/101/97 116/121/116
f 116/121/116 97/101/97 117/122/117
f 97/101/97 98/102/98 117/122/117
f 117/122/117 98/102/98 118/123/118
f 98/102/98 99/103/99 118/123/118
f 118/123/118 99/103/99 119/124/119
f 99/103/99 100/104/100 119/124/119
f 119/124/119 100/104/100 120/125/120
f 100/104/100 81/105/81 120/125/120
f 120/125/120 81/105/81 101/126/101
f 101/106/101 102/107/102 121/127/121
f 121/127/121 102/107/102 122/128/122
f 102/107/102 103/108/103 122/128/122
f 122/128/122 103/108/103 123/129/123
f 103/108/103 104/109/104 123/129/123
f 123/129/123 104/109/104 124/130/124
f 104/109/104 105/110/105 124/130/124
f 124/130/124 105/110/105 125/131/125
f 105/110/105 106/111/106 125/131/125
f 125/131/125 106/111/106 126/132/126
f 106/111/106 107/112/107 126/132/126
f 126/132/126 107/112/107 127/133/127
f 107/112/107 108/113/108 127/133/127
f 127/133/127 108/113/108 128/134/128
f 108/113/108 109/114/109 128/134/128
f 128/134/128 109/114/109 129/135/129
f 109/114/109 110/115/110 129/135/129
f 129/135/129 110/115/110 130/136/130
f 110/115/110 111/116/111 130/136/130
f 130/136/130 111/116/111 131/137/131
f 111/116/111 112/117/112 131/137/131
f 131/137/131 112/117/112 132/138/132
f 112/117/112 113/118/113 132/138/132
f 132/138/132 113/118/113 133/139/133
f 113/118/113 114/119/114 133/139/133
f 133/139/133 114/119/114 134/140/134
f 114/119/114 115/120/115 134/140/134
f 134/140/134 115/120/115 135/141/135
f 115/120/115 116/121/116 135/141/135
f 135/141/135 116/121/116 136/142/136
f 116/121/116 117/122/117 136/142/136
f 136/142/136 117/122/117 137/143/137
f 117/122/117 118/123/118 137/143/137
f 137/143/137 118/123/118 138/144/138
f 118/123/118 119/124/119 138/144/138
f 138/144/138 119/124/119 139/145/139
f 119/124/119 120/125/120 139/145/139
f 139/145/139 120/125/120 140/146/140
f 120/125/120 101/126/101 140/146/140
f 140/146/140 101/126/101 121/147/121
f 121/127/121 122/128/122 141/148/141
f 141/148/141 122/128/122 142/149/142
f 122/128/122 123/129/123 142/149/142
f 142/149/142 123/129/123 143/150/143
f 123/129/123 124/130/124 143/150/143
f 143/150/143 124/130/124 144/151/144
f 124/130/124 125/131/125 144/151/144
f 144/151/144 125/131/125 145/152/145
f 125/131/125 126/132/126 145/152/145
f 145/152/145 126/132/126 146/153/146
f 126/132/126 127/133/127 146/153/146
f 146/153/146 127/133/127 147/154/147
f 127/133/127 128/134/128 147/154/147
f 147/154/147 128/134/128 148/155/148
f 128/134/128 129/135/129 148/155/148
f 148/155/148 129/135/129 149/156/149
f 129/135/129 130/136/130 149/156/149
f 149/156/149 130/136/130 150/157/150
f 130/136/130 131/137/131 150/157/150
f 150/157/150 131/137/131 151/158/151
f 131/137/131 132/138/132 151/158/151
f 151/158/151 132/138/132 152/159/152
f 132/138/132 133/139/133 152/159/152
f 152/159/152 133/139/133 153/160/153
f 133/139/133 134/140/134 153/160/153
f 153/160/153 134/140/134 154/161/154
f 134/140/134 135/141/135 154/161/154
f 154/161/154 135/141/135 155/162/155
f 135/141/135 136/142/136 155/162/155
f 155/162/155 136/142/136 156/163/156
f 136/142/136 137/143/137 156/163/156
f 156/163/156 137/143/137 157/164/157
f 137/143/137 138/144/138 157/164/157
f 157/164/157 138/144/138 158/165/158
f 138/144/138 139/145/139 158/165/158
f 158/165/158 139/145/139 159/166/159
f 139/145/139 140/146/140 159/166/159
f 159/166/159 140/146/140 160/167/160
f 140/146/140 121/147/121 160/167/160
f 160/167/160 121/147/121 141/168/141
f 141/148/141 142/149/142 161/169/161
f 161/169/161 142/149/142 162/170/162
f 142/149/142 143/150/143 162/170/162
f 162/170/162 143/150/143 163/171/163
f 143/150/143 144/151/144 163/171/163
f 163/171/163 144/151/144 164/172/164
f 144/151/144 145/152/145 164/172/164
f 164/172/164 145/152/145 165/173/165
f 145/152/145 146/153/146 165/173/165
f 165/173/165 146/153/146 166/174/166
f 146/153/146 147/154/147 166/174/166
f 166/174/166 147/154/147 167/175/167
f 147/154/147 148/155/148 167/175/167
f 167/175/167 148/155/148 168/176/168
f 148/155/148 149/156/149 168/176/168
f 168/176/168 149/156/149 169/177/169
f 149/156/149 150/157/150 169/177/169
f 169/177/169 150/157/150 170/178/170
f 150/157/150 151/158/151 170/178/170
f 170/178/170 151/158/151 171/179/171
f 151/158/151 152/159/152 171/179/171
f 171/179/171 152/159/152 172/180/172
f 152/159/152 153/160/153 172/180/172
f 172/180/172 153/160/153 173/181/173
f 153/160/153 154/161/154 173/181/173
f 173/181/173 154/161/154 174/182/174
f 154/161/154 155/162/155 174/182/174
f 174/182/174 155/162/155 175/183/175
f 155/162/155 156/163/156 175/183/175
f 175/183/175 156/163/156 176/184/176
f 156/163/156 157/164/157 176/184/176
f 176/184/176 157/164/157 177/185/177
f 157/164/157 158/165/158 177/185/177
f 177/185/177 158/165/158 178/186/178
f 158/165/158 159/166/159 178/186/178
f 178/186/178 159/166/159 179/187/179
f 159/166/159 160/167/160 179/187/179
f 179/187/179 160/167/160 180/188/180
f 160/167/160 141/168/141 180/188/180
f 180/188/180 141/168/141 161/189/161
f 161/169/161 162/170/162 181/190/181
f 181/190/181 162/170/162 182/191/182
f 162/170/162 163/171/163 182/191/182
f 182/191/182 163/171/163 183/192/183
f 163/171/163 164/172/164 183/192/183
f 183/192/183 164/172/164 184/193/184
f 164/172/164 165/173/165 184/193/184
f 184/193/184 165/173/165 185/194/185
f 165/173/165 166/174/166 185/194/185
f 185/194/185 166/174/166 186/195/186
f 166/174/166 167/175/167 186/195/186
f 186/195/186 167/175/167 187/196/187
f 167/175/167 168/176/168 187/196/187
f 187/196/187 168/176/168 188/197/188
f 168/176/168 169/177/169 188/197/188
f 188/197/188 169/177/169 189/198/189
f 169/177/169 170/178/170 189/198/189
f 189/198/189 170/178/170 190/199/190
f 170/178/170 171/179/171 190/199/190
f 190/199/190 171/179/171 191/200/191
f 171/179/171 172/180/172 191/200/191
f 191/200/191 172/180/172 192/201/192
f 172/180/172 173/181/173 192/201/192
f 192/201/192 173/181/173 193/202/193
f 173/181/173 174/182/174 193/202/193
f 193/202/193 174/182/174 194/203/194
f 174/182/174 175/183/175 194/203/194
f 194/203/194 175/183/175 195/204/195
f 175/183/175 176/184/176 195/204/195
f 195/204/195 176/184/176 196/205/196
f 176/184/176 177/185/177 196/205/196
f 196/205/196 177/185/177 197/206/197
f 177/185/177 178/186/178 197/206/197
f 197/206/197 178/186/178 198/207/198
f 178/186/178 179/187/179 198/207/198
f 198/207/198 179/187/179 199/208/199
f 179/187/179 180/188/180 199/208/199
f 199/208/199 180/188/180 200/209/200
f 180/188/180 161/189/161 200/209/200
f 200/209/200 161/189/161 181/210/181
f 181/190/181 182/191/182 201/211/201
f 201/211/201 182/191/182 202/212/202
f 182/191/182 183/192/183 202/212/202
f 202/212/202 183/192/183 203/213/203
f 183/192/183 184/193/184 203/213/203
f 203/213/203 184/193/184 204/214/204
f 184/193/184 185/194/185 204/214/204
f 204/214/204 185/194/185 205/215/205
f 185/194/185 186/195/186 205/215/205
f 205/215/205 186/195/186 206/216/206
f 186/195/186 187/196/187 206/216/206
f 206/216/206 187/196/187 207/217/207
f 187/196/187 188/197/188 207/217/207
f 207/217/207 188/197/188 208/218/208
f 188/197/188 189/198/189 208/218/208
f 208/218/208 189/198/189 209/219/209
f 189/198/189 190/199/190 209/219/209
f 209/219/209 190/199/190 210/220/210
f 190/199/190 191/200/191 210/220/210
f 210/220/210 191/200/191 211/221/211
f 191/200/191 192/201/192 211/221/211
f 211/221/211 192/201/192 212/222/212
f 192/201/192 193/202/193 212/222/212
f 212/222/212 193/202/193 213/223/213
f 193/202/193 194/203/194 213/223/213
f 213/223/213 194/203/194 214/224/214
f 194/203/194 195/204/195 214/224/214
f 214/224/214 195/204/195 215/225/215
f 195/204/195 196/205/196 215/225/215
f 215/225/215 196/205/196 216/226/216
f 196/205/196 197/206/197 216/226/216
f 216/226/216 197/206/197 217/227/217
f 197/206/197 198/207/198 217/227/217
f 217/227/217 198/207/198 218/228/218
f 198/207/198 199/208/199 218/228/218
f 218/228/218 199/208/199 219/229/219
f 199/208/199 200/209/200 219/229/219
f 219/229/219 200/209/200 220/230/220
f 200/209/200 181/210/181 220/230/220
f 220/230/220 181/210/181 201/231/201
f 201/211/201 202/212/202 221/232/221
f 221/232/221 202/212/202 222/233/222
f 202/212/202 203/213/203 222/233/222
f 222/233/222 203/213/203 223/234/223
f 203/213/203 204/214/204 223/234/223
f 223/234/223 204/214/204 224/235/224
f 204/214/204 205/215/205 224/235/224
f 224/235/224 205/215/205 225/236/225
f 205/215/205 206/216/206 225/236/225
f 225/236/225 206/216/206 226/237/226
f 206/216/206 207/217/207 226/237/226
f 226/237/226 207/217/207 227/238/227
f 207/217/207 208/218/208 227/238/227
f 227/238/227 208/218/208 228/239/228
f 208/218/208 209/219/209 228/239/228
f 228/239/228 209/219/209 229/240/229
f 209/219/209 210/220/210 229/240/229
f 229/240/229 210/220/210 230/241/230
f 210/220/210 211/221/211 230/241/230
f 230/241/230 211/221/211 231/242/231
f 211/221/211 212/222/212 231/242/231
f 231/242/231 212/222/212 232/243/232
f 212/222/212 213/223/213 232/243/232
f 232/243/232 213/223/213 233/244/233
f 213/223/213 214/224/214 233/244/233
f 233/244/233 214/224/214 234/245/234
f 214/224/214 215/225/215 234/245/234
f 234/245/234 215/225/215 235/246/235
f 215/225/215 216/226/216 235/246/235
f 235/246/235 216/226/216 236/247/236
f 216/226/216 217/227/217 236/247/236
f 236/247/236 217/227/217 237/248/237
f 217/227/217 218/228/218 237/248/237
f 237/248/237 218/228/218 238/249/238
f 218/228/218 219/229/219 238/249/238
f 238/249/238 219/229/219 239/250/239
f 219/229/219 220/230/220 239/250/239
f 239/250/239 220/230/220 240/251/240
f 220/230/220 201/231/201 240/251/240
f 240/251/240 201/231/201 221/252/221
f 221/232/221 222/233/222 241/253/241
f 241/253/241 222/233/222 242/254/242
f 222/233/222 223/234/223 242/254/242
f 242/254/242 223/234/223 243/255/243
f 223/234/223 224/235/224 243/255/243
f 243/255/243 224/235/224 244/256/244
f 224/235/224 225/236/225 244/256/244
f 244/256/244 225/236/225 245/257/245
f 225/236/225 226/237/226 245/257/245
f 245/257/245 226/237/226 246/258/246
f 226/237/226 227/238/227 246/258/246
f 246/258/246 227/238/227 247/259/247
f 227/238/227 228/239/228 247/259/247
f 247/259/247 228/239/228 248/260/248
f 228/239/228 229/240/229 248/260/248
f 248/260/248 229/240/229 249/261/249
f 229/240/229 230/241/230 249/261/249
f 249/261/249 230/241/230 250/262/250
f 230/241/230 231/242/231 250/262/250
f 250/262/250 231/242/231 251/263/251
f 231/242/231 232/243/232 251/263/251
f 251/263/251 232/243/232 252/264/252
f 232/243/232 233/244/233 252/264/252
f 252/264/252 233/244/233 253/265/253
f 233/244/233 234/245/234 253/265/253
f 253/265/253 234/245/234 254/266/254
f 234/245/234 235/246/235 254/266/254
f 254/266/254 235/246/235 255/267/255
f 235/246/235 236/247/236 255/267/255
f 255/267/255 236/247/236 256/268/256
f 236/247/236 237/248/237 256/268/256
f 256/268/256 237/248/237 257/269/257
f 237/248/237 238/249/238 257/269/257
f 257/269/257 238/249/238 258/270/258
f 238/249/238 239/250/239 258/270/258
f 258/270/258 239/250/239 259/271/259
f 239/250/239 240/251/240 259/271/259
f 259/271/259 240/251/240 260/272/260
f 240/251/240 221/252/221 260/272/260
f 260/272/260 221/252/221 241/273/241
f 241/253/241 242/254/242 261/274/261
f 261/274/261 242/254/242 262/275/262
f 242/254/242 243/255/243 262/275/262
f 262/275/262 243/255/243 263/276/263
f 243/255/243 244/256/244 263/276/263
f 263/276/263 244/256/244 264/277/264
f 244/256/244 245/257/245 264/277/264
f 264/277/264 245/257/245 265/278/265
f 245/257/245 246/258/246 265/278/265
f 265/278/265 246/258/246 266/279/266
f 246/258/246 247/259/247 266/279/266
f 266/279/266 247/259/247 267/280/267
f 247/259/247 248/260/248 267/280/267
f 267/280/267 248/260/248 268/281/268
f 248/260/248 249/261/249 268/281/268
f 268/281/268 249/261/249 269/282/269
f 249/261/249 250/262/250 269/282/269
f 269/282/269 250/262/250 270/283/270
f 250/262/250 251/263/251 270/283/270
f 270/283/270 251/263/251 271/284/271
f 251/263/251 252/264/252 271/284/271
f 271/284/271 252/264/252 272/285/272
f 252/264/252 253/265/253 272/285/272
f 272/285/272 253/265/253 273/286/273
f 253/265/253 254/266/254 273/286/273
f 273/286/273 254/266/254 274/287/274
f 254/266/254 255/267/255 274/287/274
f 274/287/274 255/267/255 275/288/275
f 255/267/255 256/268/256 275/288/275
f 275/288/275 256/268/256 276/289/276
f 256/268/256 257/269/257 276/289/276
f 276/289/276 257/269/257 277/290/277
f 257/269/257 258/270/258 277/290/277
f 277/290/277 258/270/258 278/291/278
f 258/270/258 259/271/259 278/291/278
f 278/291/278 259/271/259 279/292/279
f 259/271/259 260/272/260 279/292/279
f 279/292/279 260/272/260 280/293/280
f 260/272/260 241/273/241 280/293/280
f 280/293/280 241/273/241 261/294/261
f 261/274/261 262/275/262 281/295/281
f 281/295/281 262/275/262 282/296/282
f 262/275/262 263/276/263 282/296/282
f 282/296/282 263/276/263 283/297/283
f 263/276/263 264/277/264 283/297/283
f 283/297/283 264/277/264 284/298/284
f 264/277/264 265/278/265 284/298/284
f 284/298/284 265/278/265 285/299/285
f 265/278/265 266/279/266 285/299/285
f 285/299/285 266/279/266 286/300/286
f 266/279/266 267/280/267 286/300/286
f 286/300/286 267/280/267 287/301/287
f 267/280/267 268/281/268 287/301/287
f 287/301/287 268/281/268 288/302/288
f 268/281/268 269/282/269 288/302/288
f 288/302/288 269/282/269 289/303/289
f 269/282/269 270/283/270 289/303/289
f 289/303/289 270/283/270 290/304/290
f 270/283/270 271/284/271 290/304/290
f 290/304/290 271/284/271 291/305/291
f 271/284/271 272/285/272 291/305/291
f 291/305/291 272/285/272 292/306/292
f 272/285/272 273/286/273 292/306/292
f 292/306/292 273/286/273 293/307/293
f 273/286/273 274/287/274 293/307/293
f 293/307/293 274/287/274 294/308/294
f 274/287/274 275/288/275 294/308/294
f 294/308/294 275/288/275 295/309/295
f 275/288/275 276/289/276 295/309/295
f 295/309/295 276/289/276 296/310/296
f 276/289/276 277/290/277 296/310/296
f 296/310/296 277/290/277 297/311/297
f 277/290/277 278/291/278 297/311/297
f 297/311/297 278/291/278 298/312/298
f 278/291/278 279/292/279 298/312/298
f 298/312/298 279/292/279 299/313/299
f 279/292/279 280/293/280 299/313/299
f 299/313/299 280/293/280 300/314/300
f 280/293/280 261/294/261 300/314/300
f 300/314/300 261/294/261 281/315/281
f 281/295/281 282/296/282 301/316/301
f 301/316/301 282/296/282 302/317/302
f 282/296/282 283/297/283 302/317/302
f 302/317/302 283/297/283 303/318/303
f 283/297/283 284/298/284 303/318/303
f 303/318/303 284/298/284 304/319/304
f 284/298/284 285/299/285 304/319/304
f 304/319/304 285/299/285 305/320/305
f 285/299/285 286/300/286 305/320/305
f 305/320/305 286/300/286 306/321/306
f 286/300/286 287/301/287 306/321/306
f 306/321/306 287/301/287 307/322/307
f 287/301/287 288/302/288 307/322/307
f 307/322/307 288/302/288 308/323/308
f 288/302/288 289/303/289 308/323/308
f 308/323/308 289/303/289 309/324/309
f 289/303/289 290/304/290 309/324/309
f 309/324/309 290/304/290 310/325/310
f 290/304/290 291/305/291 310/325/310
f 310/325/310 291/305/291 311/326/311
f 291/305/291 292/306/292 311/326/311
f 311/326/311 292/306/292 312/327/312
f 292/306/292 293/307/293 312/327/312
f 312/327/312 293/307/293 313/328/313
f 293/307/293 294/308/294 313/328/313
f 313/328/313 294/308/294 314/329/314
f 294/308/294 295/309/295 314/329/314
f 314/329/314 295/309/295 315/330/315
f 295/309/295 296/310/296 315/330/315
f 315/330/315 296/310/296 316/331/316
f 296/310/296 297/311/297 316/331/316
f 316/331/316 297/311/297 317/332/317
f 297/311/297 298/312/298 317/332/317
f 317/332/317 298/312/298 318/333/318
f 298/312/298 299/313/299 318/333/318
f 318/333/318 299/313/299 319/334/319
f 299/313/299 300/314/300 319/334/319
f 319/334/319 300/314/300 320/335/320
f 300/314/300 281/315/281 320/335/320
f 320/335/320 281/315/281 301/336/301
f 301/316/301 302/317/302 321/337/321
f 321/337/321 302/317/302 322/338/322
f 302/317/302 303/318/303 322/338/322
f 322/338/322 303/318/303 323/339/323
f 303/318/303 304/319/304 323/339/323
f 323/339/323 304/319/304 324/340/324
f 304/319/304 305/320/305 324/340/324
f 324/340/324 305/320/305 325/341/325
f 305/320/305 306/321/306 325/341/325
f 325/341/325 306/321/306 326/342/326
f 306/321/306 307/322/307 326/342/326
f 326/342/326 307/322/307 327/343/327
f 307/322/307 308/323/308 327/343/327
f 327/343/327 308/323/308 328/344/328
f 308/323/308 309/324/309 328/344/328
f 328/344/328 309/324/309 329/345/329
f 309/324/309 310/325/310 329/345/329
f 329/345/329 310/325/310 330/346/330
f 310/325/310 311/326/311 330/346/330
f 330/346/330 311/326/311 331/347/331
f 311/326/311 312/327/312 331/347/331
f 331/347/331 312/327/312 332/348/332
f 312/327/312 313/328/313 332/348/332
f 332/348/332 313/328/313 333/349/333
f 313/328/313 314/329/314 333/349/333
f 333/349/333 314/329/314 334/350/334
f 314/329/314 315/330/315 334/350/334
f 334/350/334 315/330/315 335/351/335
f 315/330/315 316/331/316 335/351/335
f 335/351/335 316/331/316 336/352/336
f 316/331/316 317/332/317 336/352/336
f 336/352/336 317/332/317 337/353/337
f 317/332/317 318/333/318 337/353/337
f 337/353/337 318/333/318 338/354/338
f 318/333/318 319/334/319 338/354/338
f 338/354/338 319/334/319 339/355/339
f 319/334/319 320/335/320 339/355/339
f 339/355/339 320/335/320 340/356/340
f 320/335/320 301/336/301 340/356/340
f 340/356/340 301/336/301 321/357/321
f 321/337/321 322/338/322 341/358/341
f 341/358/341 322/338/322 342/359/342
f 322/338/322 323/339/323 342/359/342
f 342/359/342 323/339/323 343/360/343
f 323/339/323 324/340/324 343/360/343
f 343/360/343 324/340/324 344/361/344
f 324/340/324 325/341/325 344/361/344
f 344/361/344 325/341/325 345/362/345
f 325/341/325 326/342/326 345/362/345
f 345/362/345 326/342/326 346/363/346
f 326/342/326 327/343/327 346/363/346
f 346/363/346 327/343/327 347/364/347
f 327/343/327 328/344/328 347/364/347
f 347/364/347 328/344/328 348/365/348
f 328/344/328 329/345/329 348/365/348
f 348/365/348 329/345/329 349/366/349
f 329/345/329 330/346/330 349/366/349
f 349/366/349 330/346/330 350/367/350
f 330/346/330 331/347/331 350/367/350
f 350/367/350 331/347/331 351/368/351
f 331/347/331 332/348/332 351/368/351
f 351/368/351 332/348/332 352/369/352
f 332/348/332 333/349/333 352/369/352
f 352/369/352 333/349/333 353/370/353
f 333/349/333 334/350/334 353/370/353
f 353/370/353 334/350/334 354/371/354
f 334/350/334 335/351/335 354/371/354
f 354/371/354 335/351/335 355/372/355
f 335/351/335 336/352/336 355/372/355
f 355/372/355 336/352/336 356/373/356
f 336/352/336 337/353/337 356/373/356
f 356/373/356 337/353/337 357/374/357
f 337/353/337 338/354/338 357/374/357
f 357/374/357 338/354/338 358/375/358
f 338/354/338 339/355/339 358/375/358
f 358/375/358 339/355/339 359/376/359
f 339/355/339 340/356/340 359/376/359
f 359/376/359 340/356/340 360/377/360
f 340/356/340 321/357/321 360/377/360
f 360/377/360 321/357/321 341/378/341
f 341/358/341 342/359/342 361/379/361
f 361/379/361 342/359/342 362/380/362
f 342/359/342 343/360/343 362/380/362
f 362/380/362 343/360/343 363/381/363
f 343/360/343 344/361/344 363/381/363
f 363/381/363 344/361/344 364/382/364
f 344/361/344 345/362/345 364/382/364
f 364/382/364 345/362/345 365/383/365
f 345/362/345 346/363/346 365/383/365
f 365/383/365 346/363/346 366/384/366
f 346/363/346 347/364/347 366/384/366
f 366/384/366 347/364/347 367/385/367
f 347/364/347 348/365/348 367/385/367
f 367/385/367 348/365/348 368/386/368
f 348/365/348 349/366/349 368/386/368
f 368/386/368 349/366/349 369/387/369
f 349/366/349 350/367/350 369/387/369
f 369/387/369 350/367/350 370/388/370
f 350/367/350 351/368/351 370/388/370
f 370/388/370 351/368/351 371/389/371
f 351/368/351 352/369/352 371/389/371
f 371/389/371 352/369/352 372/390/372
f 352/369/352 353/370/353 372/390/372
f 372/390/372 353/370/353 373/391/373
f 353/370/353 354/371/354 373/391/373
f 373/391/373 354/371/354 374/392/374
f 354/371/354 355/372/355 374/392/374
f 374/392/374 355/372/355 375/393/375
f 355/372/355 356/373/356 375/393/375
f 375/393/375 356/373/356 376/394/376
f 356/373/356 357/374/357 376/394/376
f 376/394/376 357/374/357 377/395/377
f 357/374/357 358/375/358 377/395/377
f 377/395/377 358/375/358 378/396/378
f 358/375/358 359/376/359 378/396/378
f 378/396/378 359/376/359 379/397/379
f 359/376/359 360/377/360 379/397/379
f 379/397/379 360/377/360 380/398/380
f 360/377/360 341/378/341 380/398/380
f 380/398/380 341/378/341 361/399/361
f 2/2/2 1/1/1 381/400/381
f 3/3/5 2/2/2 381/401/381
f 4/4/7 3/3/5 381/402/381
f 5/5/9 4/4/7 381/403/381
f 6/6/11 5/5/9 381/404/381
f 7/7/13 6/6/11 381/405/381
f 8/8/15 7/7/13 381/406/381
f 9/9/17 8/8/15 381/407/381
f 10/10/19 9/9/17 381/408/381
f 11/11/21 10/10/19 381/409/381
f 12/12/23 11/11/21 381/410/381
f 13/13/25 12/12/23 381/411/381
f 14/14/27 13/13/25 381/412/381
f 15/15/29 14/14/27 381/413/381
f 16/16/31 15/15/29 381/414/381
f 17/17/33 16/16/31 381/415/381
f 18/18/35 17/17/33 381/416/381
f 19/19/37 18/18/35 381/417/381
f 20/20/39 19/19/37 381/418/381
f 1/21/1 20/20/39 381/419/381
f 361/379/361 362/380/362 382/420/382
f 362/380/362 363/381/363 382/421/382
f 363/381/363 364/382/364 382/422/382
f 364/382/364 365/383/365 382/423/382
f 365/383/365 366/384/366 382/424/382
f 366/384/366 367/385/367 382/425/382
f 367/385/367 368/386/368 382/426/382
f 368/386/368 369/387/369 382/427/382
f 369/387/369 370/388/370 382/428/382
f 370/388/370 371/389/371 382/429/382
f 371/389/371 372/390/372 382/430/382
f 372/390/372 373/391/373 382/431/382
f 373/391/373 374/392/374 382/432/382
f 374/392/374 375/393/375 382/433/382
f 375/393/375 376/394/376 382/434/382
f 376/394/376 377/395/377 382/435/382
f 377/395/377 378/396/378 382/436/382
f 378/396/378 379/397/379 382/437/382
f 379/397/379 380/398/380 382/438/382
f 380/398/380 361/399/361 382/439/382
